<?xml version="1.0" encoding="utf-8"?>
<!-- Generator: Adobe Illustrator 19.0.0, SVG Export Plug-In . SVG Version: 6.00 Build 0)  -->
<svg version="1.1" id="Layer_1" width="132" xmlns="http://www.w3.org/2000/svg" xmlns:xlink="http://www.w3.org/1999/xlink" x="0px" y="0px"
	 viewBox="-124 176 150 150" style="enable-background:new -124 176 150 150;" xml:space="preserve">
<style type="text/css">
	.st0{fill:#FFFFFF;}
	.st1{fill:#50B848;}
	.st2{fill:#FDB913;}
	.st3{fill:#50B848;stroke:#FFFFFF;stroke-miterlimit:10;}
	.st4{fill-rule:evenodd;clip-rule:evenodd;fill:#FFFFFF;}
</style>
<g>
	<g>

			<ellipse transform="matrix(-1 -7.484492e-004 7.484492e-004 -1 -99.5181 457.442)" class="st0" cx="-49.7" cy="228.7" rx="34.7" ry="35.9"/>
		<path class="st1" d="M-29.1,228.3l0.3-7.7c-0.8-0.8-1.7-1.5-2.6-1.9c-1.2-0.8-2.6-1.1-4.7-1.1c-1.2,0-3.5,0.3-6.2,1.5
			c0.7-1.5,2.2-3.3,4.1-3.7c0.6,0,3.3,1,5.5,0.7c3.9-0.6,5.4-2.2,6.6-6.6c-0.7,0.6-5.9,0.8-9.8-4c-1.2,1.5-2.5,2.8-4.7,4.8
			c-0.8,0.7-2.2,1.9-3.5,2.9l-0.1,11.2c3.2-2.1,6.6-1.5,6.6-1.5c1.4,0.1,3.7,2.2,3.5,3.5c-4.8-1.1-8.2,1.8-9,3.5
			c3-0.8,7.3,1.4,8.8,2.2c0,2.2-3.6,4.1-4.7,4.1h-3c0,0-0.6-0.1-1.4,0c-0.7,0.1-0.8,2.9-0.8,2.9c0.3,0.3,2.4,2.1,6.1,5.4
			c1.7,1.5,2.6,2.6,3.3,3.5l0.7,0.3c1.4,0,2.5-0.8,3.5-1.9c1-1.1,1.7-3.5,1.7-4.8l0.1-8.3l0,0c0,0,3.2,0.4,4.3-2.5
			C-27.4,230.2-29.1,228.3-29.1,228.3 M-30.9,238c-0.3,0-0.3-0.1-1-1.5c-0.7-1.4-1-2.4-1-2.8s0.1-0.7,0.7-0.8c0.6,0,1,0,1.1,0.1v2.6
			l0.1,2.2L-30.9,238z"/>
		<path class="st2" d="M-29.6,228.3l0.3-7.7c-0.8-0.8-1.7-1.5-2.6-1.9c-1.2-0.8-2.6-1.1-4.7-1.1c-1.2,0-3.5,0.3-6.2,1.5
			c0.7-1.5,2.2-3.3,4.1-3.7c0.6,0,3.3,1,5.5,0.7c3.9-0.6,5.4-2.2,6.6-6.6c-0.7,0.6-5.9,0.8-9.8-4c-1.2,1.5-2.5,2.8-4.7,4.8
			c-0.8,0.7-2.2,1.9-3.5,2.9l-0.1,11.2c3.2-2.1,6.6-1.5,6.6-1.5c1.4,0.1,3.7,2.2,3.5,3.5c-4.8-1.1-8.2,1.8-9,3.5
			c3-1,7.3,1.4,8.8,2.2c0,2.2-3.6,4.1-4.7,4.1h-3c0,0-0.6-0.1-1.4,0c-0.7,0.1-0.8,2.9-0.8,2.9c0.3,0.3,2.4,2.1,6.1,5.4
			c1.7,1.5,2.6,2.6,3.3,3.5l0.7,0.3c1.4,0,2.5-0.8,3.5-1.9c1-1.1,1.7-3.5,1.7-4.8l0.1-8.3l0,0c0,0,3.2,0.4,4.3-2.5
			C-28,230.2-29.6,228.3-29.6,228.3 M-31.4,238c-0.3,0-0.3-0.1-1-1.5c-0.7-1.4-1-2.4-1-2.8s0.1-0.7,0.7-0.8c0.6,0,1,0,1.1,0.1v2.6
			l0.1,2.2L-31.4,238z"/>
		<path class="st1" d="M-48.3,232.2l0.3-6.1c-0.7-0.7-1.2-1.1-2.1-1.5c-1-0.6-2.1-0.8-3.7-0.8c-1,0-2.8,0.3-4.8,1.2
			c0.6-1.2,1.8-2.6,3.2-2.9c0.4,0,2.5,0.8,4.3,0.6c3-0.4,4.3-1.7,5.3-5.3c-0.6,0.4-4.6,0.7-7.6-3c-1,1.2-1.9,2.2-3.7,3.7
			c-0.7,0.6-1.7,1.5-2.6,2.4l-0.1,8.7c2.5-1.7,5.1-1.2,5.1-1.2c1.1,0.1,2.9,1.8,2.8,2.8c-3.9-1-6.5,1.5-7.1,2.8
			c2.4-0.7,5.8,1.1,6.9,1.8c0,1.7-2.8,3.3-3.7,3.2h-2.5c0,0-0.4-0.1-1.1,0c-0.6,0.1-0.7,2.4-0.7,2.4c0.1,0.3,1.9,1.7,4.7,4.3
			c1.2,1.2,2.1,2.1,2.6,2.6l0.6,0.3c1.1,0,1.9-0.6,2.8-1.5c0.8-0.8,1.2-2.8,1.2-3.7l0.1-6.5l0,0c0,0,2.5,0.3,3.5-1.9
			C-46.9,233.8-48.2,232.3-48.3,232.2 M-49.7,239.8c-0.1,0-0.3-0.1-0.7-1.2c-0.6-1.1-0.7-1.8-0.7-2.2s0.1-0.6,0.6-0.7
			c0.4,0,0.7,0,0.8,0.1v2.1l0.1,1.7L-49.7,239.8z"/>
		<path class="st2" d="M-48.7,232.2l0.3-6.1c-0.7-0.7-1.2-1.1-2.1-1.5c-1-0.6-2.1-0.8-3.7-0.8c-1,0-2.8,0.3-4.8,1.2
			c0.6-1.2,1.8-2.6,3.2-2.9c0.4,0,2.5,0.8,4.3,0.6c3-0.4,4.3-1.7,5.3-5.3c-0.6,0.4-4.6,0.7-7.6-3c-1,1.2-1.9,2.2-3.7,3.7
			c-0.7,0.6-1.7,1.5-2.6,2.4l-0.1,8.7c2.5-1.7,5.1-1.2,5.1-1.2c1.1,0.1,2.9,1.8,2.8,2.8c-3.7-1-6.5,1.5-7.1,2.8
			c2.4-0.7,5.8,1.1,6.9,1.8c0,1.7-2.8,3.3-3.7,3.2H-59c0,0-0.4-0.1-1.1,0c-0.6,0.1-0.7,2.4-0.7,2.4c0.1,0.3,1.9,1.7,4.7,4.3
			c1.2,1.2,2.1,2.1,2.6,2.6l0.6,0.3c1.1,0,1.9-0.6,2.8-1.5c0.8-0.8,1.2-2.8,1.2-3.7l0.1-6.5l0,0c0,0,2.5,0.3,3.5-1.9
			C-47.3,233.8-48.6,232.3-48.7,232.2 M-50.1,239.8c-0.1,0-0.3-0.1-0.7-1.2c-0.6-1.1-0.7-1.8-0.7-2.2s0.1-0.6,0.6-0.7
			c0.4,0,0.7,0,0.8,0.1v2.1l0.1,1.7L-50.1,239.8z"/>
		<path class="st1" d="M-63.7,235.2l0.3-5c-0.6-0.6-1.1-1-1.7-1.2c-0.8-0.6-1.7-0.7-3-0.7c-0.7,0-2.2,0.1-3.9,1
			c0.4-1,1.4-2.2,2.6-2.4c0.3,0,2.1,0.7,3.5,0.4c2.5-0.4,3.5-1.4,4.3-4.3c-0.4,0.3-3.7,0.6-6.2-2.5c-0.8,1-1.5,1.8-3,3
			c-0.6,0.4-1.4,1.2-2.2,1.9v7.1c2.1-1.4,4.1-1,4.1-1c0.8,0.1,2.4,1.4,2.2,2.2c-3-0.7-5.3,1.2-5.7,2.2c1.9-0.6,4.7,0.8,5.7,1.4
			c0,1.4-2.2,2.6-3,2.6h-1.9c0,0-0.3-0.1-0.8,0c-0.4,0-0.6,1.9-0.6,1.9c0.1,0.1,1.5,1.4,3.9,3.5c1.1,1,1.7,1.7,2.1,2.2l0.4,0.3
			c0.8,0,1.5-0.6,2.2-1.2c0.7-0.7,1.1-2.2,1.1-3l0.1-5.3l0,0c0,0,1.9,0.3,2.8-1.7C-62.5,236.6-63.7,235.3-63.7,235.2 M-64.8,241.4
			c-0.1,0-0.1-0.1-0.6-1c-0.4-0.8-0.6-1.5-0.6-1.8s0.1-0.4,0.4-0.6c0.4,0,0.6,0,0.7,0.1v1.7l0.1,1.4V241.4z"/>
		<path class="st2" d="M-63.9,235.2l0.3-5c-0.6-0.6-1.1-1-1.7-1.2c-0.8-0.6-1.7-0.7-3-0.7c-0.7,0-2.2,0.1-3.9,1
			c0.4-1,1.4-2.2,2.6-2.4c0.3,0,2.1,0.7,3.5,0.4c2.5-0.4,3.5-1.4,4.3-4.3c-0.4,0.3-3.7,0.6-6.2-2.5c-0.8,1-1.5,1.8-3,3
			c-0.6,0.4-1.4,1.2-2.2,1.9l-0.1,7.1c2.1-1.4,4.1-1,4.1-1c0.8,0.1,2.4,1.4,2.2,2.2c-3-0.7-5.3,1.2-5.7,2.2c1.9-0.6,4.7,0.8,5.7,1.4
			c0,1.4-2.2,2.6-3,2.6h-1.9c0,0-0.4-0.1-0.8,0c-0.4,0-0.6,1.9-0.6,1.9c0.1,0.1,1.5,1.4,3.9,3.5c1.1,1,1.7,1.7,2.1,2.2l0.4,0.3
			c0.8,0,1.7-0.6,2.2-1.2c0.7-0.7,1.1-2.2,1.1-3l0.1-5.3l0,0c0,0,1.9,0.3,2.8-1.7C-62.8,236.6-63.9,235.3-63.9,235.2 M-65,241.4
			c-0.1,0-0.1-0.1-0.6-1c-0.4-0.8-0.6-1.5-0.6-1.8s0.1-0.4,0.4-0.6c0.4,0,0.6,0,0.7,0.1v1.7l0.1,1.4V241.4z"/>
		<path class="st3" d="M-49,275.4c-26.3,0-47.7-21.4-47.7-47.7S-75.3,180-49,180s47.7,21.4,47.7,47.7S-22.7,275.4-49,275.4
			 M-48.9,196.5c-17.1,0-31.1,14-31.2,31.1c0,17.1,14,31.1,31.1,31.2c17.1,0,31.1-14,31.2-31.1C-17.8,210.6-31.7,196.5-48.9,196.5"
			/>
		<path class="st0" d="M-89.1,218.9c0-0.1,0-0.1-0.1-0.3c-0.3-0.4-0.4-0.7-0.6-1c0.4-0.3,0.6-0.6,0.7-1c0-0.1,0-0.3,0-0.4
			c0.7,0.4,1,0.8,0.8,1.2c0,0.1,0,0.1-0.1,0.3c-0.1,0.1-0.1,0.3-0.1,0.3c0,0.3,0,0.4,0.3,0.6c0-0.1,0-0.4,0-0.8
			c0.1-0.7,0.6-0.8,1.1-0.7l2.8,0.7c0.1,0,0.3,0.1,0.4,0.3s0.1,0.3,0.3,0.4c0.6-0.3,1-0.6,1.1-0.8s0.3-0.6,0.4-1s0.1-0.7,0-0.8
			c0-0.3-0.3-0.4-0.6-0.6c0,0.3,0,0.6,0.1,0.8c0.1,0.3,0.1,0.4,0.1,0.4c0,0.1-0.1,0.3-0.3,0.4c-0.1,0.1-0.3,0.3-0.4,0.1
			c-0.3,0-0.4-0.3-0.4-0.6s0-0.4,0-0.7s0.3-0.6,0.4-0.7c0.3-0.1,0.4-0.3,0.8-0.1c0.6,0.1,0.8,0.4,1.1,1c0.1,0.4,0.3,1,0.1,1.4
			c-0.1,0.7-0.6,1.2-1.2,1.8c-0.6,0.4-1,0.7-1.1,0.6c-0.1-0.3-0.1-0.6-0.3-0.8c-0.1-0.4-0.4-0.6-0.8-0.7l-1.8-0.4
			c-0.4,0.1-0.7,0.4-0.7,0.7c0,0.1,0,0.4,0.1,0.8L-89.1,218.9z"/>
		<path class="st0" d="M-87.4,215.7c-0.1,0.1-0.3,0.3-0.4,0.6l-0.7-0.3c0-0.3-0.1-1-0.3-1.7c0.4-0.3,0.7-0.6,0.8-0.8
			c0-0.4-0.1-0.7-0.3-1c0.4-0.3,0.7-0.6,0.8-0.7c0-0.1,0-0.3,0-0.4c0.3,0.1,0.6,0.3,0.7,0.6s0.1,0.6,0,0.8c-0.4,0.4-0.7,0.8-0.7,1
			c0,0,0,0.1,0.1,0.6c0,0.1,0,0.3,0,0.3c-0.6,0.4-0.8,0.8-0.8,1.1c0-0.1,0,0,0,0c0-0.1,0.1-0.1,0.3-0.4l0.1-0.1c0,0,0,0.1,0.1,0.3
			C-87.4,215.6-87.4,215.7-87.4,215.7 M-87.2,214.3c0.1-0.4,0.4-0.8,0.7-1.4c0.1-0.3,0.3-0.6,0.6-0.8l2.9,1c0.1,0.4,0.3,0.7,0.1,0.8
			c0,0,0,0-0.1,0s-0.4,0.1-0.8,0.3c-0.4,0.3-0.7,0.3-1,0.3c-0.1,0-0.1-0.3-0.1-0.7s0-0.8-0.1-1c-0.1,0.1-0.4,0.4-0.6,0.6
			c-0.3,0.4-0.4,0.7-0.6,1.1c-0.1,0.3-0.1,0.6-0.1,1.1c0,0.6,0.1,0.8,0.3,1c0.1,0,0.3,0,0.4-0.1c0,0,0.1-0.1,0.3-0.3
			c0,0-0.1-0.1-0.3-0.4c-0.1-0.1-0.1-0.3,0-0.6c0-0.1,0.1-0.3,0.3-0.3s0.3,0,0.4,0c0.3,0.1,0.4,0.3,0.3,0.4c0,0-0.1,0.1-0.1,0.3
			c0,0.1,0.1,0.3,0.4,0.6s0.4,0.6,0.3,0.8c0,0.1-0.1,0.3-0.3,0.4c-0.1,0.1-0.3,0.1-0.4,0.1l-1.9-0.8
			C-87.3,216-87.4,215.3-87.2,214.3 M-84.3,213.1l-0.4-0.1c0,0,0,0,0,0.1s0,0.1,0.1,0.1C-84.5,213.2-84.4,213.2-84.3,213.1
			C-84.4,213.1-84.3,213.1-84.3,213.1"/>
		<path class="st0" d="M-91.2,212c0.3-0.4,0.6-0.7,1.1-1h-0.1c-0.3-0.1-0.4-0.4-0.3-0.8c0-0.1,0.1-0.3,0.3-0.4
			c0.1-0.1,0.3-0.1,0.4,0c0.4,0.1,0.6,0.6,0.3,1.1c0,0,0.1,0,0.3,0h0.1c0.1,0.4,0.3,0.8,0.1,1.1c0,0-0.1,0.1-0.1,0.3
			c-0.3,0.3-0.4,0.4-0.6,0.8c-0.1,0.1-0.1,0.6-0.1,1.1c0,0.1-0.1,0.1-0.4,0.3c-0.1,0-0.4,0-0.6,0c-0.3-0.1-0.6-0.4-0.6-1
			C-91.3,212.8-91.3,212.4-91.2,212 M-90.2,213.4V213c0-0.1,0-0.3,0.1-0.4c0.1-0.3,0.3-0.4,0.4-0.6c0.1,0,0.3-0.1,0.6-0.4l0.1-0.1
			c-0.3,0-0.6,0.1-0.8,0.3c-0.3,0.1-0.4,0.4-0.6,0.6C-90.5,212.7-90.5,213.1-90.2,213.4 M-90.2,210.3c0,0.1,0,0.3,0.1,0.3
			s0.3,0,0.3-0.1s0-0.3-0.1-0.3S-90.1,210.2-90.2,210.3"/>
		<path class="st0" d="M-86.2,209.2c0.4-0.7,0.8-1,1.4-0.7c0.3,0.1,0.4,0.4,0.4,0.7s0,0.6-0.1,0.8c-0.1,0.3-0.3,0.6-0.6,0.7
			c-0.3,0.1-0.6,0.3-0.8,0.1c-0.3-0.1-0.4-0.4-0.6-0.7C-86.3,209.9-86.3,209.5-86.2,209.2 M-85.5,210c0.4,0.1,0.6,0.1,0.7-0.1
			c0.1-0.3,0-0.4-0.3-0.6c-0.1,0-0.3-0.1-0.4-0.1s-0.3,0-0.3,0.1s0,0.3,0,0.3C-85.8,209.9-85.6,210-85.5,210 M-83.7,210.6
			c0.1-0.3,0.3-0.6,0.6-0.7c0.3-0.1,0.6-0.1,0.8-0.1c0.3,0.1,0.4,0.4,0.6,0.7c0,0.3,0,0.6-0.1,0.8c-0.1,0.3-0.3,0.6-0.6,0.7
			c-0.3,0.1-0.6,0.3-0.8,0.1c-0.3-0.1-0.4-0.4-0.4-0.7C-83.8,211.1-83.8,210.9-83.7,210.6 M-83,211.3c0.4,0.1,0.7,0.1,0.8-0.1
			c0.1-0.1,0-0.3-0.1-0.4c0,0-0.1-0.1-0.3-0.1c-0.1-0.1-0.3-0.1-0.4-0.1s-0.1,0.1-0.3,0.1C-83.4,211-83.3,211.1-83,211.3"/>
		<path class="st0" d="M-83.3,206.4c0-0.1,0.1-0.4,0.4-0.8c0.1-0.1,0.3-0.3,0.3-0.4c0.3-0.3,0.6-0.4,1-0.6c0.4-0.1,0.7-0.1,0.8,0
			c0,0.1,0.1,0.1,0.1,0.4c0.1,0.1,0.3,0.4,0.3,0.6c0.4-0.1,0.7-0.4,1-1c0.1-0.3,0.3-0.6,0.3-0.8s-0.1-0.6-0.4-0.7
			c-0.3-0.1-0.6,0-0.8,0.4c-0.1,0.1-0.3,0.4-0.3,0.8l-1.7-1.1c0-0.1,0-0.4,0-0.6c0-0.4-0.1-0.7-0.3-0.8c0.4-0.1,0.8-0.3,1-0.6
			c0.1-0.1,0.1-0.3,0.1-0.4c0.4,0.6,0.6,1.1,0.3,1.5c0,0-0.1,0.1-0.3,0.3c-0.1,0.1-0.1,0.1-0.3,0.3c-0.1,0.3-0.1,0.4,0.1,0.7
			c0-0.1,0-0.3,0.1-0.4c0,0,0,0,0.1-0.1c0.6-0.7,1.1-0.8,2.1-0.3c0.6,0.4,0.8,0.8,1,1.5c0.1,0.6,0,1.2-0.4,1.8
			c-0.1,0.3-0.3,0.4-0.6,0.6c-0.3,0.3-0.6,0.3-0.7,0.4c-0.4-0.7-0.7-1.1-0.7-1.2c-0.3,0-0.4,0-0.6,0c-0.4,0.1-0.8,0.4-1.1,0.8
			c-0.6,0.7-0.4,1.4,0.1,1.7c0.1,0.1,0.3,0.1,0.6,0c0.3-0.1,0.4-0.1,0.6-0.3c0.3-0.4,0.4-0.7,0.1-0.8c-0.1,0-0.1,0-0.3,0
			c0,0,0,0.1,0,0.4c0,0.1,0,0.3,0,0.3c-0.3,0.3-0.6,0.4-0.8,0.1c-0.1-0.1-0.3-0.3-0.3-0.4c0-0.3,0-0.4,0.1-0.6
			c0.1-0.3,0.4-0.4,0.7-0.4s0.6,0.1,0.7,0.3c0.3,0.1,0.4,0.4,0.6,0.8c0.1,0.4,0,0.7-0.1,1s-0.6,0.4-1,0.3c-0.4,0-0.8-0.1-1.1-0.3
			c-0.7-0.4-1.1-1-1.1-1.7c-0.3,0-0.4,0-0.6,0s-0.3,0.1-0.4,0.1c0-0.3,0-0.4,0-0.8c0-0.6-0.1-1-0.1-1.1c0.4-0.1,0.8-0.3,1-0.6
			c0.1-0.1,0.1-0.3,0.1-0.4c0.6,0.6,0.6,1.1,0.3,1.5c0,0.1-0.1,0.3-0.4,0.4c-0.1,0.1-0.3,0.3-0.3,0.4v0.1c0,0,0.1,0,0.3-0.1
			S-83.4,206.6-83.3,206.4"/>
		<path class="st0" d="M-78.4,208.7c-0.4-0.3-0.6-0.7-0.6-1.2c0-0.4,0.3-0.8,0.6-1.2c0.4-0.4,0.8-0.7,1.5-0.7c0.6,0,1.2,0.1,1.7,0.4
			l-0.1,0.1c-1-0.3-1.8,0.1-2.6,1.1c-0.4,0.6-0.6,1-0.1,1.4c0.1-0.1,0.1-0.3,0-0.6c0-0.1,0-0.3,0-0.3c0.3-0.4,0.6-0.4,1-0.1
			c0.1,0.1,0.3,0.3,0.3,0.6s-0.1,0.4-0.3,0.6C-77.6,208.9-78,208.9-78.4,208.7"/>
		<path class="st0" d="M-80.1,199.5c0.1,0,0.4-0.1,1.1-0.3c0.4-0.1,0.6-0.1,0.7-0.1l2.8,2.6c0.1,0.1,0.1,0.3,0.1,0.4
			c0,0.3,0,0.4-0.1,0.4c0,0-0.4,0-0.8,0c-0.6,0.1-0.8,0-1.1-0.1c-0.1-0.1-0.1-0.4,0.1-1c0.1-0.6,0.1-0.8-0.1-1.1
			c-0.3-0.3-0.7-0.3-1.2-0.3c-0.6,0.1-1,0.3-1.1,0.6c-0.1,0.1-0.3,0.3-0.3,0.3s0,0.1-0.1,0.3l-0.1-0.1c0,0,0-0.3,0-0.7
			C-80.2,200.1-80.1,199.8-80.1,199.5 M-76.5,201.2l-0.3-0.3c0,0.1-0.1,0.1-0.1,0.1c0,0.1,0,0.1,0,0.1
			C-76.9,201.3-76.8,201.3-76.5,201.2C-76.6,201.2-76.6,201.2-76.5,201.2"/>
		<path class="st0" d="M-73.5,195.8c0.3,0.3,0.3,0.6,0.3,1s-0.1,0.7-0.4,0.8c-0.1,0.1-0.3,0.1-0.6,0.3c-0.3,0-0.6,0-0.7-0.1
			c-0.3-0.4-0.3-0.7,0-1c0.1-0.1,0.4-0.1,0.6,0c0.3,0.1,0.4,0.3,0.6,0.3h0.1c0,0,0.1-0.1,0-0.1c0,0-0.1-0.1-0.1-0.3
			c-0.1-0.3-0.6-0.3-1,0c-0.4,0.1-0.7,0.3-1,0.6c-0.6,0.6-1,1.1-1,1.7l0.3-0.3c0.1-0.1,0.4-0.3,0.7-0.4c0.3,0,0.4,0,0.4,0l0.6,0.7
			l0.1-0.1c0,0,0.1-0.1,0.3-0.1s0.3,0,0.4,0c0.3,0.1,0.4,0.1,0.4,0.1c0.1,0,0.1,0,0.4,0c0,0,0.1,0,0.1-0.1c0.3-0.3,0.4-0.6,0.3-1
			c0-0.1-0.1-0.6-0.1-0.8l0.6,0.7c0.3,0.3,0.4,0.7,0.6,1.1c0,0.4,0,0.8-0.4,1.1c-0.4,0.4-0.8,0.4-1.4,0L-74,199l-0.3-0.1l0.8,1
			c0.1,0.1,0.1,0.3,0.1,0.4s0,0.3-0.1,0.3c0,0-0.1,0-0.3,0c0,0-0.3,0-0.7,0.1c-0.3,0.1-0.4,0.1-0.6,0c-0.1,0-0.4-0.1-0.6-0.3
			c0,0-0.1-0.1-0.3-0.3c0.4-0.4,0.7-0.8,0.8-1.4c-0.4,0-0.7,0.1-1,0.3c-0.1,0.1-0.3,0.3-0.4,0.6l-1.1-1.2c0.1-0.3,0.1-0.6,0.3-0.8
			v-0.1c0.1-0.4,0.3-0.8,0.4-1.4c0.7-0.4,1.1-0.6,1.5-0.7C-74.3,195.2-73.9,195.4-73.5,195.8 M-74.3,199.5l-0.3-0.4l0,0
			c0,0,0,0,0,0.1v0.1C-74.7,199.5-74.6,199.5-74.3,199.5C-74.4,199.5-74.4,199.5-74.3,199.5"/>
		<path class="st0" d="M-70.6,191.7c0.6,0,0.8,0,1.1-0.1c0.1,0,0.1-0.1,0.3-0.3c0.3,0.7,0.1,1.2-0.3,1.5c0,0-0.1,0.1-0.3,0.1
			c-0.1,0-0.3,0.1-0.3,0.1c-0.3,0.1-0.3,0.4-0.1,0.7c0.1-0.1,0.3-0.3,0.6-0.6c0.7-0.4,1.4-0.3,1.9,0.7c0.1,0.4,0.3,0.8,0.3,1.4
			c0,0.7-0.3,1.4-1,1.7c-0.4,0.3-1,0.4-1.5,0.4s-1-0.1-1.5-0.6c0.3-0.3,0.6-0.4,0.6-0.6c0.1-0.1,0.3-0.4,0.3-0.8
			c-0.3,0-0.4,0-0.7,0.1c-0.1,0.1-0.3,0.1-0.4,0.3c-0.1,0.1-0.3,0.3-0.3,0.3l-1.1-1.7c0-0.1,0.1-0.3,0.1-0.6
			c0.1-0.4,0.1-0.7,0.1-0.8c0.4,0,0.8,0,1.1-0.1c0.1-0.1,0.1-0.1,0.3-0.3c0.3,0.7,0.1,1.2-0.3,1.5c0,0-0.1,0.1-0.3,0.1
			c-0.1,0-0.3,0.1-0.3,0.1c-0.3,0.1-0.3,0.4-0.1,0.7c0-0.1,0.1-0.3,0.3-0.4c0.1,0,0.1-0.1,0.1-0.1c0.6-0.4,1.1-0.3,1.5,0.3
			c0.1,0.1,0.1,0.6,0.1,1.2c0.3,0.1,0.6,0.1,1,0c0.1,0,0.4-0.1,0.7-0.3c0.1-0.1,0.4-0.4,0.6-0.7c0.1-0.4,0.3-0.7,0.1-0.8
			c-0.1-0.1-0.3-0.3-0.7-0.1c0,0-0.1,0-0.4,0.1s-0.6,0.4-0.7,0.6l-1.1-1.7c0.1-0.3,0.1-0.4,0.1-0.6
			C-70.7,192.1-70.6,191.8-70.6,191.7 M-70,194.7c0.3,0.1,0.4,0.1,0.7,0l0.3-0.1c0.1-0.1,0.3-0.1,0.3-0.3c0.1,0.4,0,0.8-0.4,1.1
			c-0.3,0.1-0.7,0.3-1,0.1L-70,194.7z"/>
		<path class="st0" d="M-71.1,188.3c0.3-0.1,0.6-0.1,0.8,0.3c0.1,0.3,0.1,0.6,0,1.1s-0.3,0.8-0.6,1c-0.6,0.1-1,0.1-1.2,0.3
			c-0.1,0.1-0.3,0.3-0.4,0.4s-0.3,0.3-0.3,0.3c-0.1,0-0.3,0-0.4,0c-0.1-0.1-0.3-0.1-0.3-0.3c-0.1-0.3-0.1-0.7,0-1.1
			c0.1-0.4,0.4-0.7,0.8-0.8c0.4-0.3,0.8-0.3,1.2-0.3c0.1,0,0.6,0.1,1,0.3c0,0,0-0.1,0-0.3l-0.1-0.1c0,0-0.1,0-0.3,0
			c-0.1,0-0.3,0-0.3,0C-71.4,188.6-71.4,188.5-71.1,188.3 M-72.9,191c0.1-0.1,0.1-0.1,0.3-0.3c0.1-0.1,0.3-0.3,0.4-0.3
			c0.3-0.1,0.6-0.3,0.8-0.3c0,0,0.3,0,0.7,0c-0.1-0.1-0.3-0.3-0.7-0.3c-0.4,0-0.7,0-0.8,0.1C-72.8,190.3-72.9,190.7-72.9,191"/>
		<path class="st0" d="M-67.7,191.1c0-0.1,0.1-0.1,0.1-0.3c0.1-0.4,0.3-0.8,0.3-1.1c0.4,0.1,0.8,0.1,1.1,0c0.1,0,0.3-0.1,0.3-0.3
			c0.1,0.7,0,1.2-0.4,1.4c0,0-0.1,0-0.3,0.1c-0.1,0-0.3,0-0.3,0.1c-0.3,0.1-0.3,0.3-0.3,0.7c0.1-0.1,0.3-0.3,0.7-0.6
			c0.6-0.3,1-0.1,1.2,0.3l1.2,2.6c0,0.1,0.1,0.3,0,0.4c0,0.1-0.1,0.3-0.1,0.4c0.6,0.3,1,0.3,1.4,0.3c0.3,0,0.6-0.1,1-0.3
			c0.4-0.1,0.6-0.3,0.7-0.6c0.1-0.3,0.3-0.6,0.1-0.8c-0.3,0.1-0.4,0.3-0.6,0.6c-0.1,0.3-0.1,0.4-0.3,0.4c-0.1,0-0.3,0-0.6,0
			s-0.4-0.1-0.4-0.3c-0.1-0.1,0-0.4,0.1-0.7c0.1-0.1,0.3-0.3,0.6-0.4c0.3-0.1,0.6-0.1,0.8-0.1s0.4,0.3,0.6,0.6c0.3,0.4,0.1,1,0,1.4
			c-0.3,0.4-0.6,0.7-1,1c-0.6,0.3-1.4,0.4-2.2,0.1c-0.7-0.1-1.1-0.3-1.1-0.6c0.1-0.3,0.3-0.6,0.4-0.7c0.1-0.4,0.1-0.7,0-1.1
			l-0.8-1.7c-0.3-0.1-0.6-0.1-0.8,0c-0.1,0.1-0.4,0.3-0.6,0.6L-67.7,191.1z"/>
		<path class="st0" d="M-63.5,188.2c0.3,0,0.7,0.1,1.2,0.1c0.3-0.3,0.4-0.6,0.7-0.8c0.6,0.1,0.8,0.3,1.1,0.1c0.1,0,0.3-0.1,0.4-0.3
			c0.1,0.3,0.1,0.6,0,0.8c-0.1,0.3-0.3,0.4-0.7,0.6c-0.7,0-1.1-0.1-1.1-0.1s-0.1,0.1-0.3,0.4c-0.1,0.1-0.1,0.3-0.3,0.3
			c-0.1,0-0.3,0-0.7-0.1c-0.3,0-0.6,0-0.7,0c-0.1,0-0.1,0.1-0.3,0.1c0.1,0,0.3,0,0.4,0h0.3c0,0,0,0.1-0.1,0.3v0.1
			c0.3-0.1,0.4-0.1,0.6,0c0,0,0.1,0.1,0.3,0.1c0-0.1,0.1-0.3,0.3-0.4c0.3-0.3,0.6-0.6,0.7-0.6c0.1-0.1,0.6-0.1,0.8-0.1
			c0.6,0,0.8,0,1,0l1,2.9c-0.3,0.4-0.4,0.6-0.4,0.7h-0.1c-0.7,0-1-0.1-1-0.1c-0.4-0.1-0.7-0.4-0.7-0.6c-0.1-0.3,0.1-0.4,0.6-0.8
			c0.3-0.1,0.4-0.4,0.6-0.7c-0.6,0-1.1,0-1.7,0.3c-0.4,0.1-0.7,0.4-0.8,0.7l0.7,1.8c0,0.3-0.1,0.6-0.6,0.7c-0.6,0.1-1,0-1.2-0.3
			l-0.3-0.8c0.1,0,0.3,0,0.4-0.1c0.1,0,0.3-0.1,0.6-0.3c0.1-0.1,0.3-0.4,0.1-0.6c0-0.1-0.1-0.3-0.1-0.3h-0.1c0,0-0.1,0.1-0.1,0.3
			c0,0.1-0.1,0.1-0.1,0.1c-0.1,0.1-0.4,0-0.6,0c-0.1-0.1-0.4-0.3-0.4-0.4c-0.1-0.3-0.1-0.6,0-0.7c0-0.1,0.1-0.3,0.4-0.4
			c-0.3,0-0.4,0-0.6,0l-0.1-0.4c0-0.1,0.1-0.4,0.4-0.6L-63.5,188.2z M-59.9,190.5c-0.1,0.1-0.3,0.3-0.1,0.4c0,0.1,0.1,0.3,0.4,0.1
			L-59.9,190.5z"/>
		<path class="st0" d="M-61,194.1c0-0.4,0.1-0.6,0.6-0.7c0.1,0,0.3,0,0.4,0.1c0.1,0.1,0.3,0.3,0.3,0.4c0,0.3,0,0.6-0.3,0.8
			c0.1,0.1,0.3,0.1,0.4,0l0.1-0.1c0.1-0.1,0.3-0.4,0.4-0.7c0-0.1,0-0.4,0.1-0.8l0.1,0.3c0,0.1,0.1,0.3,0.1,0.6c0,0.1,0,0.3,0,0.4
			c0,0.7-0.4,1.2-1,1.4c-0.4,0.1-0.7,0-1.1-0.4c0.1-0.1,0.3-0.3,0.6-0.6c0.1-0.1,0.1-0.3,0.1-0.3v-0.1h-0.4
			C-60.8,194.4-60.9,194.4-61,194.1"/>
		<path class="st0" d="M-58.8,187.8c0.1-0.1,0.3-0.3,0.4-0.4c0.3-0.3,0.4-0.6,0.6-0.7c0.4,0.3,0.8,0.3,1.1,0.3
			c0.1,0,0.3-0.1,0.3-0.1c-0.1,0.7-0.4,1.1-0.8,1.2c-0.1,0-0.1,0-0.4,0c-0.1,0-0.3,0-0.3,0c-0.3,0-0.4,0.3-0.4,0.6
			c0.1-0.1,0.3-0.1,0.3-0.3c0.1,0,0.3,0,0.3-0.1c0.7-0.1,1.1,0.1,1.2,0.8c0,0.4,0,0.8-0.3,1.1c0,0.1,0.3,0.3,0.7,0.3s0.7,0.1,0.8,0
			c0.3,0,0.4-0.1,0.7-0.3c0.3-0.1,0.4-0.4,0.4-0.6c-0.1-0.4-0.4-0.6-1.1-0.6c-0.1,0-0.4,0.1-0.7,0.3l-0.3-1.9
			c0.3-0.1,0.7-0.4,1.1-0.7c0.1-0.1,0.6-0.4,0.8-0.7h0.1c0.4,0,0.8,0,1.1,0.1s0.6,0.1,0.6,0.1c0.1,0,0.3,0.1,0.6,0.3l0.7,4
			c0,0.1,0,0.1-0.1,0.3c-0.1,0.1-0.3,0.3-0.6,0.3c0-0.3-0.1-0.3-0.4-0.4c-0.7-0.1-1.1-0.6-1.1-1.1c0-0.1,0.3-0.4,0.7-0.7
			c0.6-0.3,0.8-0.6,0.7-0.7c0-0.3-0.4-0.6-1.2-0.7c-0.7-0.1-1.2-0.1-1.7-0.1c-0.1,0-0.3,0.1-0.6,0.1c-0.1,0.1-0.3,0.3-0.4,0.3
			c1.1-0.1,1.8,0.3,1.9,1.4c0,0.4,0,0.8-0.3,1.2c-0.4,0.7-0.8,1.1-1.7,1.1c-0.6,0.1-1.1,0-1.5-0.1c-0.4-0.3-0.8-0.6-1.1-1.1
			c0.1,0,0.4-0.1,0.7-0.3c0.4-0.1,0.6-0.4,0.6-0.6c0-0.1-0.1-0.1-0.3-0.3c-0.1,0-0.3-0.1-0.4,0c-0.1,0-0.3,0-0.4,0.1
			c-0.1,0-0.3,0.1-0.4,0.3L-58.8,187.8z M-51.9,189l-0.1,0.1c0,0-0.1,0.1,0,0.1c-0.1,0.1,0,0.1,0.3,0.1L-51.9,189z"/>
		<path class="st0" d="M-53.4,182.8c0.4,0,0.8,0.1,1.2,0.4c0.4,0.3,0.7,0.6,0.7,1c-0.1,0.1-0.1,0.3-0.3,0.3
			c-0.3,0.1-0.4,0.3-0.6,0.3c0,0-0.3,0-0.6-0.1c-0.1,0-0.4-0.1-0.7,0c-0.1,0-0.6,0.1-1,0.4c-0.1,0-0.3,0-0.4-0.1c0-0.3,0-0.4,0-0.6
			c0-0.4,0.1-0.7,0.4-1.1C-54.1,183.1-53.8,182.9-53.4,182.8 M-54.1,184.2c0.3-0.1,0.6-0.3,0.8-0.3c0.3,0,0.6,0,1,0.3
			c0.1,0,0.3,0.1,0.6,0.3c0-0.1-0.1-0.3-0.6-0.6c-0.4-0.1-0.7-0.3-0.8-0.3C-53.8,183.8-54.3,183.9-54.1,184.2"/>
		<path class="st0" d="M-50.7,186.7c0.1-0.1,0.3-0.3,0.4-0.4c0.3-0.3,0.4-0.4,0.6-0.7c0.4,0.3,0.7,0.4,1.1,0.4c0.1,0,0.3,0,0.4-0.1
			c-0.1,0.7-0.6,1.1-1,1.1c-0.1,0-0.1,0-0.3,0c-0.1,0-0.3,0-0.3,0c-0.3,0-0.4,0.1-0.4,0.4c0.3-0.1,0.6-0.3,0.7-0.3
			c0.3,0,0.4,0,0.6,0.1c0.1,0.1,0.1,0.1,0.3,0.3v2.8c0,0.1,0,0.3-0.1,0.4c-0.1,0.1-0.3,0.3-0.4,0.3h-0.1c0-0.1-0.1-0.3-0.4-0.4
			c-0.4-0.4-0.7-0.6-0.8-0.7v-0.7c0.1,0,0.4-0.1,0.8-0.1c0.3-0.1,0.6-0.3,0.8-0.4c-0.3-0.1-0.6-0.3-0.7-0.3c-0.1,0-0.3,0-0.4,0.1
			c0,0-0.3,0.1-0.4,0.3L-50.7,186.7z M-48.9,189.6v-0.4c0,0,0,0-0.1,0c0,0,0,0-0.1,0l-0.1,0.1C-49.1,189.3-49.1,189.4-48.9,189.6
			C-49,189.4-49,189.4-48.9,189.6"/>
		<path class="st0" d="M-45.1,186.4c0.3-0.1,0.6-0.3,1-0.4c0.3,0.1,0.6,0.3,1,0.7c0.1,0.1,0.3,0.3,0.3,0.3l-0.3,3.7
			c0,0.1-0.1,0.3-0.3,0.4c-0.1,0.1-0.3,0.3-0.6,0.1c0,0-0.3-0.3-0.7-1c-0.1-0.3-0.3-0.6-0.3-0.7c0-0.1,0.3-0.3,0.8-0.6
			c0.6-0.1,0.8-0.4,0.8-0.7s-0.1-0.6-0.4-0.8s-0.7-0.6-1-0.6c-0.1,0-0.4,0.1-0.7,0.4c-0.3-0.3-0.6-0.4-0.8-0.4c-0.6,0-1,0.4-1,1.4
			c0,0.8,0.1,1.2,0.7,1.2c0.3,0,0.6-0.1,0.7-0.6c-0.3,0-0.4,0-0.6,0.1c0,0,0,0,0,0.1c-0.4,0-0.7-0.3-0.6-0.8c0-0.1,0.1-0.4,0.3-0.6
			c0.1-0.1,0.4-0.1,0.6-0.1c0.3,0,0.4,0.1,0.6,0.6c0.1,0.3,0.1,0.6,0.1,0.8c0,0.4-0.1,0.8-0.3,1.2c-0.3,0.4-0.6,0.7-0.8,0.7
			c-0.4,0-0.8-0.4-1-1.2c-0.1-0.6-0.1-1.1,0-1.7c0.1-1.1,0.7-1.9,1.7-2.5c0.3,0.1,0.4,0.3,0.6,0.3
			C-45.4,186.1-45.3,186.3-45.1,186.4 M-43.5,189.9v-0.4c-0.1,0-0.3,0.1-0.3,0.1S-43.7,189.7-43.5,189.9
			C-43.6,189.9-43.6,189.9-43.5,189.9"/>
		<path class="st0" d="M-40.8,186.4c0.1,0.1,0.4,0.3,0.8,0.7c0.3,0.3,0.4,0.4,0.4,0.6l-0.7,3.7c0,0.1-0.1,0.3-0.3,0.4
			c-0.1,0.1-0.3,0.1-0.4,0.1c0-0.1-0.1-0.3-0.4-0.7c-0.3-0.4-0.4-0.7-0.4-1c0-0.1,0.3-0.3,0.8-0.4c0.6-0.1,0.8-0.3,0.8-0.6
			c0.1-0.4,0-0.7-0.4-1.1c-0.3-0.4-0.7-0.7-1.1-0.7c-0.3,0-0.3,0-0.4,0c0,0-0.1,0-0.3,0v-0.1c0,0,0.3-0.1,0.7-0.3
			C-41.4,186.7-41.1,186.5-40.8,186.4 M-40.4,190.4l0.1-0.4c-0.1,0-0.1,0-0.1,0c-0.1,0-0.1,0-0.1,0.1
			C-40.7,190.1-40.7,190.3-40.4,190.4C-40.6,190.3-40.6,190.3-40.4,190.4"/>
		<path class="st0" d="M-44.9,193.7c0.4,0.1,0.7,0.3,1,0.6c0.8,0.7,1.4,1.1,1.5,1.1c0,0,0-0.1,0-0.3c0-0.1,0-0.3,0-0.3v-0.1
			c0.1-0.1,0.1-0.1,0.3-0.1c0.1,0,0.1,0,0.3,0c0.1,0,0.3,0.1,0.3,0.3c0,0,0,0,0,0.1c-0.1,0.7-0.7,1-1.5,0.7
			c-0.3-0.1-0.8-0.4-1.4-0.8c-0.6-0.6-1.1-0.8-1.4-0.8l-0.4-0.1c-0.1,0-0.3,0-0.6-0.1c-0.1,0-0.3,0-0.4,0
			C-46.4,193.5-45.7,193.5-44.9,193.7 M-45.5,191c0.3,0.1,0.6,0.1,0.7,0.3c0,0,0.1,0.1,0.3,0.4c0.3-0.1,0.3-0.3,0.4-0.3
			s0.4,0,0.8,0.1c0.3,0.1,0.6,0.1,0.7,0.3c0,0,0.1,0.1,0.3,0.3c0-0.1,0.1-0.1,0.3-0.1c0.1,0,0.4,0,0.8,0.1c0.4,0.1,0.6,0.1,0.7,0.3
			c0.1,0.1,0.1,0.6,0,1.1c-0.1,0.4-0.1,0.6-0.3,0.7c-0.1,0.1-0.4,0.1-0.7,0.1c-0.1,0-0.3-0.1-0.4-0.4c-0.6-0.1-0.6-0.3-0.6-0.4
			c0.1-0.3,0.3-0.4,0.7-0.3c0.1,0,0.3,0.1,0.4,0.3s0.3,0.1,0.3,0.1l0.1-0.3c-0.3-0.4-0.6-0.6-1-0.7c-0.6-0.1-0.8,0-0.8,0.4l-0.1,0.6
			c0,0.1-0.1,0.3-0.1,0.3c-0.1,0-0.3,0.1-0.4,0c-0.1,0-0.3-0.1-0.4-0.4c-0.1-0.1-0.1-0.4-0.1-0.6c0-0.1,0.1-0.3,0.4-0.3
			c0.1,0,0.4,0,0.6,0c-0.3-0.4-0.6-0.6-0.8-0.7c-0.3,0-0.4,0-0.7,0c-0.3,0.1-0.4,0.1-0.4,0.1c-0.3-0.4-0.4-0.6-0.7-0.7
			c-0.4-0.1-0.6,0.1-0.7,0.6v0.3c0.1-0.1,0.1-0.1,0.3-0.3c0.1-0.1,0.3-0.1,0.4-0.1c0.4,0.1,0.6,0.3,0.4,0.7c0,0.3-0.1,0.4-0.3,0.4
			c-0.1,0-0.3,0-0.6,0c-0.4-0.1-0.6-0.3-0.7-0.6c0-0.3,0-0.6,0-1c0.1-0.4,0.3-0.7,0.4-0.7C-46.2,191-45.8,191-45.5,191"/>
		<path class="st0" d="M-35.6,188.5c0.3-0.1,0.6-0.1,1-0.3c0.1,0.1,0.3,0.3,0.6,0.6c0.1,0.1,0.1,0.1,0.3,0.1c0.1,0,0.3,0,0.4,0
			c-0.1,0.3-0.3,0.4-0.6,0.6c-0.3,0.1-0.6,0.1-0.8,0.1c-0.1,0-0.3-0.1-0.6-0.4c-0.1-0.1-0.3-0.3-0.3-0.3s-0.1,0-0.4,0.1
			c-0.3,0.1-0.4,0.1-0.4,0.1s-0.1-0.1-0.4-0.4s-0.4-0.3-0.6-0.4c-0.1,0-0.3,0.1-0.4,0.4c0,0-0.1,0.1-0.1,0.3c0.3,0,0.6,0,1,0
			c0.1,0,0.3,0,0.7,0.1c1.7,0.6,2.2,1.4,1.8,2.5c-0.1,0.6-0.6,1-1.2,1.2c-0.6,0.1-1.1,0.1-1.8,0c-0.6-0.1-1-0.4-1.2-0.8
			s-0.4-1-0.1-1.5c0.1-0.3,0.3-0.6,0.7-0.7c0.3-0.1,0.7-0.1,1,0c0.3,0,0.4,0.1,0.6,0.4c0.1,0.1,0.3,0.4,0.1,0.6
			c-0.1,0.6-0.4,0.7-0.8,0.6l-0.3-0.1c0,0,0-0.1-0.1-0.4s-0.3-0.4-0.4-0.4s-0.1,0-0.3,0.1c0,0.1,0,0.1,0,0.3
			c0.1,0.4,0.6,0.8,1.4,1.1c0.7,0.3,1.2,0.1,1.4-0.4c0.1-0.4,0-0.8-0.4-1.2c-0.3-0.3-0.7-0.6-1.1-0.7c-0.6-0.1-1-0.1-1.5-0.1
			l0.4-1.2c0.3-0.3,0.8-0.6,1.7-0.7c0.1,0.1,0.3,0.3,0.4,0.4C-36,188.2-35.7,188.3-35.6,188.5"/>
		<path class="st0" d="M-28.8,192.8l-1.4,2.8c-0.1,0.1-0.3,0.1-0.4,0.1s-0.3,0-0.4,0s-0.1-0.1,0-0.1c0-0.1,0-0.3-0.1-0.7
			s-0.3-0.7-0.1-0.8V194c0-0.1,0.4-0.1,0.8-0.1c0.3,0,0.6,0,0.8,0c-0.1-0.1-0.4-0.3-0.7-0.7c-0.3-0.3-0.6-0.4-0.8-0.6
			c-1-0.4-1.5-0.4-1.9,0l-0.1,0.3c-0.1,0.3-0.1,0.4,0,0.7l0.1,0.1c0.1,0,0.1,0,0.3,0c0-0.1,0-0.3-0.1-0.4c-0.1-0.1-0.1-0.3-0.1-0.4
			c0.1-0.1,0.3-0.3,0.4-0.3c0.1,0,0.4,0,0.6,0.1c0.3,0.1,0.4,0.3,0.4,0.6s0,0.6-0.1,0.7c-0.1,0.3-0.3,0.6-0.6,0.6
			c-0.3,0.1-0.6,0.1-0.8,0l-0.1-0.1c-0.4-0.1-0.6-0.6-0.6-1.1c0-0.4,0.1-0.8,0.3-1.2c0.3-0.4,0.6-0.7,1.1-0.8c0.6-0.1,1-0.1,1.5,0.1
			C-31,191.5-30.2,191.9-28.8,192.8 M-32.4,191c-0.1-0.3-0.3-0.4-0.4-0.6l0.3-0.6c0.1-0.1,0.6-0.1,1-0.1c0.3,0,0.6,0,0.8,0
			c0.1,0.3,0.4,0.6,0.7,1c0.4,0,0.7,0,1.1-0.1c0.3,0.6,0.4,0.8,0.7,0.8c0.1,0,0.3,0.1,0.4,0.1c-0.1,0.3-0.4,0.6-0.7,0.6
			c-0.3,0.1-0.6,0.1-0.8-0.1c-0.4-0.6-0.7-0.8-0.7-0.8s-0.3,0-0.6,0.1c-0.1,0-0.3,0-0.4,0l-0.4-0.4c-0.1-0.3-0.3-0.4-0.6-0.6
			c-0.1,0-0.1,0-0.3,0c0,0,0.1,0.1,0.3,0.3l0.1,0.1c0,0-0.1,0-0.3,0.1L-32.4,191z M-30.1,194.1c-0.1,0-0.3,0-0.3,0.1
			c-0.1,0.1,0,0.3,0,0.4L-30.1,194.1z"/>
		<path class="st0" d="M-34.9,195.5c0.3-0.4,0.7-0.7,1.1-0.7s1,0.1,1.4,0.3c0.6,0.3,0.8,0.7,1,1.4c0.1,0.6,0.1,1.1-0.1,1.7l-0.1-0.1
			c0-1-0.4-1.8-1.5-2.4c-0.7-0.4-1.1-0.4-1.4,0.1c0.1,0.1,0.3,0,0.6-0.1c0.1,0,0.3,0,0.4,0c0.4,0.3,0.6,0.6,0.3,0.8
			c-0.1,0.1-0.3,0.3-0.6,0.3s-0.4,0-0.7-0.1C-35,196.5-35.2,196.1-34.9,195.5"/>
		<path class="st0" d="M-33.4,196.8c0.1-0.3,0.4-0.3,0.8,0c0.3,0.1,0.4,0.4,0.3,0.6c0,0.1-0.1,0.4-0.4,1c-0.4,0.6-0.7,0.8-1,0.6
			c-0.6-0.3-0.7-0.8-0.4-1.5c0.1,0.3,0.3,0.4,0.6,0.6c0.1,0.1,0.3,0.1,0.4,0.1s0.3,0,0.4-0.1c-0.1,0-0.1,0-0.3,0h-0.1
			C-33.5,197.6-33.7,197.2-33.4,196.8"/>
		<path class="st0" d="M-22.2,196.5c0.1,0,0.1,0,0.3,0c0.4,0,0.8,0,1.1-0.1c0.1,0.4,0.3,0.8,0.4,1c0.1,0.1,0.3,0.1,0.3,0.1
			c-0.7,0.4-1.1,0.4-1.5,0.1c0,0-0.1-0.1-0.1-0.3c-0.1-0.1-0.1-0.3-0.1-0.3c-0.1-0.1-0.4-0.1-0.7,0c0.1,0,0.4,0.1,0.7,0.4
			c0.6,0.4,0.6,0.8,0.1,1.2l-1.9,2.2c-0.1,0.1-0.3,0.1-0.4,0.1s-0.3,0-0.4,0c0,0.7,0.1,1.1,0.1,1.4c0.1,0.3,0.3,0.6,0.7,0.8
			c0.3,0.3,0.6,0.4,0.7,0.4c0.3,0.1,0.6,0,0.8-0.1c-0.1-0.1-0.4-0.3-0.7-0.3s-0.4,0-0.6,0c-0.1-0.1-0.1-0.3-0.3-0.4
			c0-0.3,0-0.4,0-0.4c0.1-0.1,0.4-0.3,0.7-0.1c0.3,0,0.4,0.1,0.6,0.4c0.3,0.3,0.4,0.4,0.4,0.7s0,0.6-0.3,0.7
			c-0.3,0.4-0.8,0.6-1.2,0.4c-0.4,0-1-0.3-1.2-0.6c-0.6-0.4-0.8-1.1-1-1.9c-0.1-0.7-0.1-1.1,0-1.2c0.3,0,0.6,0.1,0.8,0.1
			c0.4,0,0.7-0.1,1-0.4l1.2-1.4c0-0.3,0-0.6-0.3-0.8c-0.1-0.1-0.4-0.3-0.8-0.3L-22.2,196.5z"/>
		<path class="st0" d="M-17.3,201.6c-0.1,0-0.3,0-0.6-0.1c-0.3-0.1-0.6-0.3-0.8-0.3c0-0.3-0.1-0.6-0.3-1c-0.1-0.3-0.3-0.6-0.4-0.8
			c-0.3-0.3-0.7-0.4-1-0.1l0.6,0.3c0.3,0.3,0.4,0.6,0.4,0.8c0,0.3-0.1,0.6-0.3,0.8c-0.1,0.1-0.3,0.1-0.6,0.3c-0.3,0-0.4,0.1-0.7,0.1
			c0,0,0,0.1,0,0.3c0,0.4,0.1,0.7,0.4,1.1c0.3,0.3,0.6,0.4,0.8,0.1c0,0,0-0.3,0-0.6c-0.1-0.3,0-0.6,0.1-0.8c0.3-0.3,0.7-0.3,1,0
			s0.3,0.7,0,1l-1.2,1.1c0,0.1,0,0.3,0,0.3l0.1,0.1c0.1,0.1,0,0.3-0.1,0.4l-0.1,0.3c-0.3,0.1-0.4,0.1-0.7,0
			c-0.3-0.3-0.3-0.4-0.1-0.7c0.1-0.1,0.1-0.1,0.3-0.4c-0.6,0-1-0.1-1.4-0.6c-0.3-0.3-0.6-0.7-0.6-1.2c0-0.4,0.1-0.8,0.3-1.4
			c0.4,0.3,0.7,0.4,0.7,0.4c0.3,0.1,0.6,0.1,0.8,0.1c0-0.3-0.1-0.6-0.4-0.7c-0.1-0.1-0.4-0.3-0.7-0.4l1.5-1.4c0.1,0,0.4,0.1,0.8,0.3
			c0.1,0,0.4,0.1,1.1,0.4c0.1,0.4,0.4,1,0.6,1.7c0.1,0,0.3,0.1,0.6,0.3s0.6,0.3,0.7,0.3c-0.1,0-0.3,0-0.4,0.1H-17
			C-16.9,201.6-17.1,201.6-17.3,201.6"/>
		<path class="st0" d="M-15.8,201.9c0,0.1,0.1,0.6,0.1,1.1c0,0.4,0,0.7,0,0.7l-2.9,2.4c-0.1,0.1-0.3,0.1-0.4,0.1s-0.4-0.1-0.4-0.1
			s0.1-0.3,0.1-0.8c0-0.6,0.1-0.8,0.4-1c0.1-0.1,0.4,0,0.8,0.3s0.8,0.3,1.1,0.1c0.3-0.3,0.4-0.6,0.4-1.1c0-0.6-0.1-1-0.4-1.2
			c-0.1-0.1-0.3-0.3-0.3-0.3s-0.1-0.1-0.3-0.1l0.1-0.1c0,0,0.3,0,0.7,0.1C-16.4,201.7-16.1,201.7-15.8,201.9 M-18,205.1l0.4-0.3
			c-0.1-0.1-0.1-0.1-0.1-0.1h-0.1C-18,204.8-18.2,204.8-18,205.1L-18,205.1"/>
		<path class="st0" d="M-14.7,206.2c0.1,0.1,0.3,0.3,0.6,0.7c0.1,0.1,0.1,0.3,0.1,0.4c0.1,0.4,0.1,0.7,0.1,1.1
			c-0.1,0.4-0.1,0.7-0.4,0.8c-0.1,0-0.3,0-0.4,0c-0.1,0-0.4,0-0.7,0c0,0.4,0.1,0.8,0.4,1.2c0.1,0.3,0.4,0.4,0.6,0.6
			c0.3,0.1,0.6,0.1,0.7,0c0.3-0.1,0.3-0.4,0-1c-0.1-0.1-0.3-0.4-0.6-0.7l1.7-1c0.1,0,0.3,0.1,0.6,0.1c0.4,0.1,0.7,0.1,0.8,0.1
			c-0.1,0.4,0,0.8,0.1,1.1c0.1,0.1,0.1,0.1,0.3,0.3c-0.7,0.1-1.2,0-1.5-0.4c0,0-0.1-0.1-0.1-0.3c0-0.1-0.1-0.3-0.1-0.3
			c-0.1-0.3-0.3-0.3-0.7-0.1c0,0,0.1,0.1,0.3,0.4c0,0,0,0,0.1,0.1c0.4,0.8,0.3,1.4-0.7,1.9c-0.6,0.3-1.1,0.4-1.8,0.3
			c-0.6-0.1-1.1-0.6-1.4-1.1c-0.1-0.3-0.3-0.6-0.3-0.8c0-0.3,0-0.6,0-0.8c0.8-0.1,1.4-0.1,1.4-0.1c0.1-0.1,0.3-0.4,0.3-0.4
			c0.1-0.4,0-0.8-0.3-1.4c-0.4-0.8-1-1-1.7-0.7c-0.1,0.1-0.3,0.3-0.3,0.4c0,0.3,0,0.4,0.1,0.6c0.3,0.4,0.6,0.7,0.7,0.6
			c0.1,0,0.1-0.1,0.1-0.3c0,0-0.1-0.1-0.4-0.3c-0.1,0-0.1-0.1-0.3-0.1c-0.1-0.3-0.1-0.6,0.3-0.8c0.1-0.1,0.3-0.1,0.6,0
			c0.1,0.1,0.3,0.1,0.4,0.4c0.1,0.3,0.1,0.6,0,0.8c-0.1,0.3-0.3,0.4-0.6,0.6s-0.6,0.3-1,0.1c-0.4-0.1-0.6-0.3-0.8-0.6
			c-0.1-0.3-0.1-0.6,0.1-1c0.3-0.4,0.4-0.7,0.7-0.8c0.7-0.4,1.4-0.6,1.9-0.3c0.1-0.3,0.3-0.4,0.3-0.4c0-0.1,0-0.3,0-0.4
			c0.1,0.1,0.4,0.1,0.7,0.3c0.6,0.3,1,0.4,1.1,0.4c-0.1,0.4,0,0.8,0.1,1.1c0.1,0.1,0.1,0.3,0.3,0.3c-0.7,0.1-1.2,0.1-1.5-0.4
			c0-0.1-0.1-0.3-0.1-0.4c-0.1-0.3-0.1-0.4-0.1-0.4l0,0c0,0,0,0.1,0,0.3C-14.7,205.9-14.7,206-14.7,206.2"/>
		<path class="st0" d="M-10,212c0,0.1,0,0.6-0.1,1.1c0,0.4-0.1,0.7-0.1,0.7l-3.6,1.4c-0.1,0-0.3,0-0.4,0c-0.1-0.1-0.3-0.1-0.4-0.3
			c0.1,0,0.1-0.3,0.3-0.8c0.1-0.4,0.4-0.8,0.7-0.8c0.1,0,0.4,0.1,0.8,0.4c0.4,0.4,0.7,0.6,1,0.4c0.3-0.1,0.6-0.4,0.7-1
			c0.1-0.6,0.1-1,0-1.2c-0.1-0.1-0.1-0.3-0.1-0.4c0,0-0.1-0.1-0.3-0.3l0.1-0.1c0,0,0.3,0.1,0.7,0.4C-10.4,211.7-10.2,211.8-10,212
			 M-13.1,214.5l0.4-0.1c0-0.1-0.1-0.1-0.1-0.1l-0.1-0.1C-12.9,214.1-13.1,214.2-13.1,214.5C-13.1,214.3-13.1,214.3-13.1,214.5"/>
		<path class="st0" d="M-8.5,216.3c-0.1,0.3-0.1,0.7-0.3,1.2c0.3,0.3,0.6,0.6,0.8,0.7c-0.3,0.6-0.3,0.8-0.3,1.1
			c0,0.1,0.1,0.3,0.3,0.4c-0.3,0.1-0.6,0-0.8-0.1c-0.3-0.1-0.4-0.4-0.6-0.7c0.1-0.7,0.1-1.1,0.1-1.1s-0.1-0.1-0.4-0.3
			c-0.1-0.1-0.3-0.1-0.3-0.3c0-0.1,0.1-0.3,0.1-0.7c0-0.3,0-0.6,0-0.7c0-0.1-0.1-0.1-0.1-0.3c0,0.1,0,0.3,0,0.4v0.3
			c0,0-0.1,0-0.3-0.1h-0.1c0,0.3,0,0.4,0,0.6c0,0-0.1,0.1-0.1,0.3c0.1,0,0.3,0.1,0.4,0.3c0.3,0.3,0.6,0.6,0.6,0.7
			c0,0.1,0.1,0.6,0.1,1c0,0.6,0,0.8,0,1l-2.9,0.8c-0.4-0.3-0.6-0.4-0.6-0.6c0,0,0,0,0-0.1c0.3-0.6,0.4-1,0.4-1
			c0.1-0.4,0.4-0.7,0.6-0.7c0.3,0,0.4,0.1,0.8,0.6c0.1,0.3,0.4,0.6,0.7,0.7c0.1-0.6,0-1.1-0.1-1.7c-0.1-0.4-0.3-0.7-0.6-0.8
			l-1.9,0.6c-0.3,0-0.6-0.3-0.7-0.6c-0.1-0.6,0-1,0.4-1.2l0.8-0.3c0,0.1,0,0.3,0,0.4s0.1,0.4,0.3,0.6c0.1,0.3,0.3,0.3,0.6,0.3
			c0.1,0,0.3-0.1,0.3-0.1v-0.1c0,0-0.1-0.1-0.3-0.1s-0.1-0.1-0.1-0.1c0-0.3,0-0.4,0-0.6c0.1-0.1,0.3-0.3,0.4-0.4
			c0.3-0.1,0.6,0,0.7,0.1c0.1,0,0.1,0.3,0.4,0.4c0-0.3,0-0.4,0-0.6l0.7-0.1c0.1,0,0.3,0.3,0.6,0.4L-8.5,216.3z M-11,219.7
			c-0.1-0.1-0.3-0.3-0.4-0.1c-0.1,0-0.3,0.1-0.1,0.3L-11,219.7z"/>
		<path class="st0" d="M-5.5,217.4c0.1,0.6-0.1,0.8-0.7,1c-0.6,0.1-0.8-0.1-1.1-0.6c0.1,0,0.1,0,0.3,0c0.1,0,0.1,0,0.3,0
			c0.1,0,0.1-0.1,0.3-0.4c0.1-0.3,0.3-0.4,0.6-0.4c0.1,0,0.3,0,0.4,0.1C-5.6,217.1-5.6,217.2-5.5,217.4"/>
		<path class="st0" d="M-89.9,228.3l5-0.1v1.5c0,0.6,0,1,0,1.2s-0.3,0.6-0.4,0.7c-0.3,0.1-0.6,0.3-1,0.3c-0.3,0-0.6,0-0.8-0.1
			c-0.3-0.1-0.4-0.3-0.6-0.4c-0.1-0.1-0.3-0.3-0.3-0.6s-0.1-0.6-0.1-1v-0.7l-1.8,0.1C-89.9,229.2-89.9,228.3-89.9,228.3z
			 M-85.8,229.3h-1.4v0.6c0,0.4,0,0.7,0.1,0.8c0,0.1,0.1,0.3,0.3,0.3c0.1,0.1,0.3,0.1,0.4,0.1s0.3,0,0.4-0.1s0.1-0.3,0.1-0.4
			c0-0.1,0-0.4,0-0.7L-85.8,229.3L-85.8,229.3z"/>
		<path class="st0" d="M-89.6,233l4.8-0.8l0.3,2.1c0.1,0.6,0.1,1,0,1.1c0,0.3-0.1,0.4-0.4,0.7c-0.1,0.1-0.4,0.3-0.7,0.3
			c-0.4,0-0.7,0-1-0.1s-0.4-0.4-0.6-0.8c-0.1,0.3-0.1,0.4-0.3,0.6c-0.1,0.1-0.4,0.4-0.7,0.7l-0.8,0.7l-0.1-1.1l1-0.8
			c0.3-0.3,0.6-0.6,0.7-0.7c0.1-0.1,0.1-0.3,0.1-0.3c0-0.1,0-0.3,0-0.6v-0.1l-2.2,0.3L-89.6,233z M-86.6,233.5l0.1,0.7
			c0.1,0.4,0.1,0.8,0.1,0.8c0,0.1,0.1,0.1,0.3,0.3c0.1,0,0.3,0,0.4,0s0.3-0.1,0.4-0.1c0.1-0.1,0.1-0.3,0.1-0.4s0-0.3-0.1-0.7
			l-0.1-0.8L-86.6,233.5z"/>
		<path class="st0" d="M-87.6,242.4l-0.3-1.1l1-0.7l-0.6-1.9l-1.2-0.1l-0.3-1l5.3,0.4l0.3,1L-87.6,242.4z M-86.2,240l1.5-1.1
			l-1.9-0.1L-86.2,240z"/>
		<path class="st0" d="M-85.9,242.1l0.4,0.8c-0.3,0.1-0.4,0.4-0.6,0.6c-0.1,0.3,0,0.4,0.1,0.7s0.3,0.6,0.4,0.6
			c0.1,0.1,0.4,0.1,0.6,0c0.1,0,0.1-0.1,0.3-0.3c0-0.1,0-0.3,0-0.4c0-0.1,0-0.4-0.1-0.8c-0.1-0.6-0.1-1,0-1.2
			c0.1-0.4,0.4-0.7,0.7-0.8s0.4-0.1,0.7-0.1s0.6,0.1,0.7,0.4c0.3,0.1,0.4,0.4,0.6,0.8c0.3,0.6,0.3,1.1,0.1,1.4
			c-0.1,0.4-0.4,0.7-0.8,0.8l-0.4-0.8c0.3-0.1,0.4-0.3,0.4-0.4c0-0.1,0-0.4-0.1-0.7s-0.3-0.4-0.4-0.6c-0.1-0.1-0.3-0.1-0.4,0
			c-0.1,0-0.1,0.1-0.3,0.3c0,0.1,0,0.4,0,1c0.1,0.6,0.1,0.8,0.1,1.1s-0.1,0.6-0.3,0.7c-0.1,0.1-0.4,0.4-0.7,0.6
			c-0.3,0.1-0.6,0.1-0.8,0.1c-0.3,0-0.6-0.1-0.8-0.4c-0.3-0.3-0.4-0.6-0.6-1c-0.3-0.6-0.3-1.1-0.1-1.5
			C-86.7,242.7-86.3,242.4-85.9,242.1"/>
		<path class="st0" d="M-83.1,251.1l-0.6-1l0.7-1l-1-1.7l-1.1,0.1l-0.6-1l5.3-0.8l0.6,1L-83.1,251.1z M-82.5,248.5l1.2-1.5l-1.9,0.3
			L-82.5,248.5z"/>
		<path class="st0" d="M-79.4,253l0.3,1c-0.6,0.1-1,0.3-1.4,0.1c-0.4-0.1-0.8-0.4-1.1-0.8c-0.4-0.6-0.6-1.1-0.4-1.7
			c0.1-0.6,0.4-1.1,1.1-1.7c0.7-0.6,1.2-0.7,1.9-0.7c0.6,0,1.1,0.4,1.5,1c0.4,0.4,0.6,1,0.4,1.5c0,0.3-0.1,0.6-0.4,1l-0.8-0.7
			c0.1-0.1,0.3-0.4,0.3-0.7s0-0.4-0.3-0.7c-0.1-0.1-0.4-0.4-0.8-0.4s-0.7,0.1-1.2,0.6s-0.8,0.7-0.8,1.1c-0.1,0.3,0,0.7,0.3,1
			c0.1,0.3,0.4,0.4,0.6,0.4C-80.1,253.3-79.8,253.2-79.4,253"/>
		<polygon class="st0" points="-78.4,257 -75.1,253.4 -74,254.4 -75.7,257.5 -72.8,255.7 -71.7,256.6 -75,260.2 -75.7,259.7
			-73.1,256.8 -76.4,259 -77.1,258.3 -75.1,254.8 -77.8,257.6 		"/>
		<rect x="-74.8" y="258.8" transform="matrix(-0.613 0.7901 -0.7901 -0.613 88.3007 475.3206)" class="st0" width="5" height="1"/>
		<path class="st0" d="M-69,262.3l0.7,0.8c-0.4,0.4-0.8,0.6-1.2,0.6s-0.8-0.1-1.2-0.4c-0.6-0.4-0.8-0.8-1-1.4
			c-0.1-0.6,0-1.2,0.4-1.9c0.4-0.7,1-1.1,1.5-1.2c0.6-0.1,1.2,0,1.8,0.3c0.6,0.3,0.8,0.7,1,1.2c0.1,0.3,0,0.7-0.1,1l-1-0.3
			c0.1-0.3,0.1-0.4,0-0.7c-0.1-0.3-0.3-0.4-0.4-0.6c-0.3-0.1-0.6-0.3-1-0.1c-0.3,0.1-0.7,0.4-1,0.8c-0.4,0.6-0.6,1-0.4,1.2
			c0,0.3,0.3,0.6,0.6,0.8c0.1,0.3,0.3,0.3,0.6,0.3C-69.6,262.7-69.3,262.4-69,262.3"/>
		<path class="st0" d="M-68.4,264.8l2.2-4.4l1.9,1c0.4,0.3,0.8,0.4,1,0.6c0.1,0.1,0.3,0.4,0.3,0.7c0,0.3,0,0.6-0.1,0.8
			c-0.1,0.3-0.4,0.6-0.7,0.7c-0.3,0.1-0.7,0.1-1.1,0c0.1,0.1,0.3,0.4,0.3,0.6c0,0.1,0.1,0.6,0.1,1l0.1,1.1l-1.1-0.6l-0.1-1.2
			c0-0.4-0.1-0.7-0.1-0.8s-0.1-0.3-0.1-0.3c-0.1-0.1-0.3-0.1-0.4-0.3l-0.1-0.1l-1,1.8L-68.4,264.8z M-66.3,262.7l0.7,0.3
			c0.4,0.3,0.7,0.3,0.8,0.3c0.1,0,0.3,0,0.4,0s0.1-0.1,0.3-0.3c0-0.1,0.1-0.3,0-0.4c0-0.1-0.1-0.3-0.3-0.3s-0.3-0.1-0.7-0.3
			l-0.7-0.3L-66.3,262.7z"/>
		<path class="st0" d="M-63.2,264.6c0.1-0.4,0.4-0.8,0.6-1.1c0.1-0.1,0.4-0.4,0.7-0.6c0.3-0.1,0.6-0.1,0.7-0.3c0.3,0,0.7,0,1.1,0.1
			c0.7,0.3,1.1,0.7,1.4,1.2c0.3,0.6,0.3,1.2,0,1.9c-0.3,0.7-0.7,1.2-1.2,1.5c-0.5,0.3-1.1,0.3-1.8,0.1c-0.7-0.3-1.1-0.7-1.4-1.2
			C-63.4,266-63.4,265.3-63.2,264.6 M-62.1,264.9c-0.1,0.6-0.1,1,0,1.4s0.4,0.6,0.8,0.7c0.4,0.1,0.7,0.1,1.1-0.1
			c0.3-0.1,0.6-0.6,0.8-1.1c0.1-0.6,0.1-1,0-1.2c-0.1-0.3-0.4-0.6-0.8-0.7c-0.4-0.1-0.7-0.1-1.1,0.1C-61.7,264-62,264.4-62.1,264.9"
			/>
		<polygon class="st0" points="-58.5,268.7 -57.6,263.8 -54.3,264.5 -54.4,265.3 -56.7,264.8 -57,265.9 -54.9,266.3 -55.1,267.1
			-57.2,266.7 -57.6,268.8 		"/>

			<rect x="-56.1" y="266.6" transform="matrix(-0.1312 0.9914 -0.9914 -0.1312 204.2043 355.2785)" class="st0" width="5" height="1"/>
		<polygon class="st0" points="-52.6,269.6 -52.3,264.8 -51.4,264.8 -49.4,268.1 -49.3,264.9 -48.4,264.9 -48.6,269.8 -49.7,269.8
			-51.5,266.4 -51.6,269.6 		"/>
		<path class="st0" d="M-43.1,269.5l-1.1,0.1l-0.6-1.1l-1.9,0.1l-0.3,1.1l-1.1,0.1l1.5-5.1l1.1-0.1L-43.1,269.5z M-45,267.7
			l-0.8-1.8l-0.6,1.9L-45,267.7z"/>
		<polygon class="st0" points="-42.4,269.3 -43.3,264.5 -42.4,264.4 -39.7,267.1 -40.4,264 -39.5,263.8 -38.5,268.7 -39.5,268.8
			-42.1,266 -41.5,269.2 		"/>
		<path class="st0" d="M-35,265.6h1c0,0.6-0.1,1-0.3,1.4c-0.3,0.4-0.6,0.6-1.1,0.8c-0.6,0.1-1.2,0.1-1.8-0.1c-0.6-0.3-1-0.8-1.2-1.5
			c-0.3-0.8-0.3-1.4,0-2.1c0.3-0.6,0.7-1,1.4-1.1c0.6-0.1,1.1-0.1,1.5,0c0.3,0.1,0.6,0.4,0.8,0.7l-0.8,0.6c-0.1-0.3-0.3-0.4-0.6-0.4
			c-0.3-0.1-0.4-0.1-0.7,0c-0.4,0.1-0.6,0.3-0.7,0.7c-0.1,0.3-0.1,0.7,0.1,1.4c0.1,0.6,0.4,1,0.7,1.1s0.6,0.3,1,0.1
			c0.3-0.1,0.4-0.3,0.6-0.4C-35,266.3-34.9,266-35,265.6"/>
		<polygon class="st0" points="-32.5,266.6 -34.8,262.2 -31.4,260.6 -31,261.3 -33.4,262.6 -33,263.5 -30.8,262.4 -30.3,263.3
			-32.7,264.2 -32,265.5 -29.6,264.2 -29.2,265.1 		"/>
		<rect x="-30.4" y="260.9" transform="matrix(0.5337 0.8457 -0.8457 0.5337 208.1041 145.463)" class="st0" width="5" height="1"/>
		<polygon class="st0" points="-25.4,262.7 -28.3,258.7 -27.4,258.1 -24,259.5 -25.9,256.9 -25.2,256.4 -22.2,260.4 -23,260.9
			-26.5,259.5 -24.5,262.2 		"/>
		<path class="st0" d="M-22.6,258.6l0.7-0.7c0.3,0.1,0.6,0.3,0.7,0.3c0.3,0,0.4-0.1,0.7-0.3c0.3-0.3,0.4-0.4,0.4-0.7
			c0-0.3,0-0.4-0.1-0.6c-0.1-0.1-0.1-0.1-0.3-0.1c-0.1,0-0.3,0-0.4,0.1c-0.1,0-0.4,0.1-0.7,0.4c-0.4,0.3-0.8,0.4-1.1,0.4
			c-0.4,0-0.7-0.1-1-0.4c-0.1-0.1-0.3-0.4-0.3-0.7c0-0.3,0-0.6,0.1-0.8c0.1-0.3,0.3-0.6,0.6-0.8c0.4-0.4,0.8-0.7,1.2-0.7
			c0.4,0,0.8,0.1,1.1,0.4l-0.8,0.8c-0.3-0.1-0.4-0.3-0.6-0.1c-0.1,0-0.4,0.1-0.6,0.3c-0.3,0.1-0.3,0.4-0.4,0.6c0,0.1,0,0.3,0.1,0.3
			c0.1,0.1,0.1,0.1,0.3,0.1c0.1,0,0.4-0.1,0.8-0.4c0.4-0.3,0.8-0.4,1-0.6c0.3-0.1,0.6-0.1,0.7,0c0.3,0,0.4,0.3,0.7,0.4
			c0.1,0.3,0.3,0.4,0.4,0.7c0,0.3,0,0.6-0.1,0.8c-0.1,0.3-0.3,0.6-0.7,0.8c-0.4,0.4-0.8,0.7-1.4,0.7
			C-21.8,259.1-22.2,259-22.6,258.6"/>
		<polygon class="st0" points="-17.2,255.5 -20.4,252.8 -21.4,254 -21.9,253.4 -19.4,250.4 -18.9,251 -19.7,252.1 -16.7,254.7 		"/>
		<rect x="-19.5" y="250.7" transform="matrix(0.8098 0.5867 -0.5867 0.8098 144.1422 57.7522)" class="st0" width="5" height="1"/>
		<polygon class="st0" points="-13.6,250.5 -17.1,248.5 -17.9,249.7 -18.6,249.3 -16.5,246 -15.8,246.4 -16.7,247.6 -13.2,249.7
			"/>
		<path class="st0" d="M-16.5,245.7l0.4-0.8l2.4,1.1c0.4,0.1,0.7,0.3,0.8,0.3s0.4,0,0.6,0c0.1-0.1,0.3-0.3,0.4-0.6
			c0.1-0.3,0.1-0.4,0.1-0.7c0-0.1-0.1-0.3-0.3-0.4c-0.1-0.1-0.4-0.3-0.7-0.4l-2.5-1.1l0.4-0.8l2.4,1.1c0.6,0.3,1,0.4,1.1,0.6
			c0.1,0.1,0.4,0.3,0.4,0.6c0.1,0.1,0.1,0.4,0.1,0.7s-0.1,0.6-0.3,1s-0.4,0.7-0.6,0.8c-0.1,0.1-0.4,0.3-0.7,0.3s-0.4,0-0.6,0
			c-0.3,0-0.7-0.1-1.1-0.4L-16.5,245.7z"/>
		<polygon class="st0" points="-9.6,242.3 -13.5,240.9 -13.9,242.3 -14.7,242 -13.5,238.2 -12.6,238.5 -13.2,239.9 -9.3,241.3 		"/>
		<rect x="-13.4" y="237.7" transform="matrix(0.9685 0.249 -0.249 0.9685 58.9709 10.2065)" class="st0" width="5" height="1"/>
		<path class="st0" d="M-10.6,237.1c-0.6-0.1-1-0.3-1.2-0.4c-0.3-0.1-0.4-0.3-0.6-0.6c-0.1-0.3-0.3-0.4-0.3-0.7
			c-0.1-0.3-0.1-0.7,0-1.1c0.1-0.7,0.4-1.2,1-1.7c0.6-0.4,1.1-0.4,1.9-0.3c0.8,0.1,1.4,0.4,1.8,1c0.4,0.6,0.6,1.1,0.4,1.8
			c-0.1,0.7-0.4,1.2-1,1.7S-9.9,237.3-10.6,237.1 M-10.4,236.2c0.6,0.1,1,0,1.2-0.1c0.3-0.3,0.6-0.6,0.6-0.8c0-0.4,0-0.7-0.3-1
			s-0.7-0.6-1.2-0.6c-0.6-0.1-1,0-1.2,0.1c-0.3,0.1-0.6,0.6-0.6,1s0,0.7,0.3,1.1C-11.4,235.9-11,236-10.4,236.2"/>
		<polygon class="st0" points="-7.4,231.9 -12.2,231.7 -12.2,230.8 -8.9,229 -12.2,228.8 -12.1,227.9 -7.3,228 -7.3,229
			-10.6,230.9 -7.4,231.1 		"/>
	</g>
	<path class="st0" d="M-97.4,299.7c0,1.2-0.5,2-1.6,2.6c0,1,0.6,1.7,1.9,2.2c1.3,0.5,2.8,0.7,4.4,0.7c2.9,0,4.8-0.4,5.8-1.3
		c1-0.8,1.6-2,1.8-3.5c0.5,0,0.7,0.5,0.7,1.4c0,1.8-0.9,3.4-2.7,4.8c-1.8,1.4-4.1,2-6.9,2c-3.5,0-6.1-0.6-7.8-1.7
		c-1.7-1.1-2.7-3.1-3.1-5.8c3.7,0,5.5-1.1,5.5-3.3l0-6.7c-0.1-0.2-0.3-0.5-0.8-0.7c-1-0.4-2.6-0.3-4.6,0.5l0-7.8
		c0-0.7,0.5-1.5,1.4-2.4c1-0.9,1.6-1.4,1.9-1.4c0.3,0,1,0.3,2,0.9c1,0.6,2,0.9,2.8,0.9c-0.7,2.5-1.5,3.7-2.3,3.7
		c-0.8,0-1.4-0.2-2-0.5c-0.6-0.3-1.1-0.4-1.5-0.2c-0.4,0.2-0.8,0.8-1.1,1.9c1.1-0.5,2.3-0.5,3.6,0c1.3,0.5,2.1,1.2,2.6,2.1
		L-97.4,299.7z M-74.8,296.5c-0.2,0.2-0.4,0.4-0.6,0.6c-1.8,1.7-4.3,2.5-7.4,2.5c-3.4,0-5.9-0.6-7.6-1.9c-1.7-1.3-2.6-2.9-2.8-5
		c2.2,0,3.9-0.2,5.1-0.7c1.2-0.5,1.8-1,1.8-1.6c0-0.6-0.8-0.9-2.3-0.8c-1.5,0.1-3,0.5-4.5,1.1l0-7.1c0.7-1.1,2-2.1,3.7-3.1
		c1.7-1,3.4-1.4,5-1.4c1.2,0,2.7,0.4,4.5,1.2c1.8,0.8,3,1.2,3.4,1.2c0.4,0,1.4-0.4,2.9-1.2c1.4-0.8,2.6-1.2,3.5-1.2
		c1.1,0,2.9,0.6,5.4,1.7c2.5,1.1,3.7,2.2,3.7,3.1l0,13c0,0.5-0.3,1.1-0.8,1.8c-0.5,0.6-1.2,1-1.9,1c-1.5,0-2.7-0.7-3.8-2.1
		c-1.1-1.4-1.6-2.6-1.6-3.6c0-0.7,1.1-1.3,3.4-1.9c2.3-0.6,3.4-1.7,3.4-3.2c0-1.6-1.5-2.9-4.4-4.1c-2.9-1.2-5.1-1.8-6.4-1.8
		c-1,0-2.2,0.3-3.5,1c-1.3,0.7-2.4,1-3.2,1c-0.9,0-2.2-0.3-4-0.9c-1.8-0.6-3.1-0.9-4-0.9c-0.8,0-1.6,0.3-2.5,0.8
		c-0.9,0.5-1.3,1.1-1.3,1.6c2.3-0.6,4.2-0.5,5.5,0.3c1.4,0.8,2.1,2.1,2.1,4c0,1.3-0.9,2.6-2.7,3.8c0.2,0.5,0.8,0.8,1.8,1.2
		c1,0.3,2.4,0.5,4.2,0.5c1.9,0,3.4-0.4,4.5-1.2c1.1-0.8,1.7-1.9,1.7-3.3c-0.4,0.5-0.9,0.8-1.5,0.8c-0.6,0-1.1-0.1-1.6-0.4
		c-0.5-0.2-0.8-0.6-1.1-1c-0.3-0.5-0.4-0.9-0.4-1.4c0-0.5,0.1-1,0.4-1.4c0.3-0.4,0.7-0.8,1.2-1c0.5-0.2,1.4-0.3,2.5-0.3
		c1.6,0,2.5,1.6,2.5,4.8l0,7.5c0,1.8-0.6,2.7-1.9,2.7c-1.3,0-1.9-0.3-1.9-1c0-0.7,0.3-1.2,0.9-1.6
		C-75.2,298.2-74.9,297.6-74.8,296.5 M-62.5,293.5l0-1.6c-0.5,0.5-0.9,0.8-1.1,1c-0.2,0.2-0.2,0.4,0,0.7c0.2,0.3,0.4,0.5,0.7,0.5
		C-62.6,294.1-62.5,293.9-62.5,293.5"/>
	<path class="st0" d="M-29.2,291.5c0,2.4-0.9,4.3-2.6,5.9c-1.7,1.6-4.1,2.3-7,2.3c-2.1,0-3.9-0.5-5.4-1.4c-1.5-0.9-2-1.8-1.5-2.5
		l2.5-3.1c-0.7-1.1-1.6-2-2.8-2.5c-1.2-0.6-2.4-0.8-3.7-0.8c-3.5,0-5.3,1.1-5.3,3.3c0,2,0.9,3,2.7,3c1.8,0,2.8-0.3,3-1
		c0.2-0.7,0-0.9-0.5-0.9c-0.3,0.7-1.1,1-2.4,1c-1.3,0-1.9-0.8-1.9-2.3c0-1.5,1-2.3,3.1-2.3c2,0,3.1,1.3,3,3.8c0,3.6-1.5,5.5-4.3,5.5
		c-1.3,0-2.4-0.6-3.4-1.8c-0.9-1.2-1.4-2.6-1.4-4.2c0-3.6,1.1-6.1,3.3-7.4c-1.3-1.1-2.3-1.6-3.2-1.6c0.8-1.9,1.9-3.3,3.3-4.2
		c1.4-0.9,2.3-1.4,2.7-1.4c0.4,0,1.3,0.3,2.6,0.9c1.4,0.6,2.5,0.9,3.5,0.9c-0.8,2.4-1.7,3.6-2.7,3.6c-1,0-2-0.2-2.8-0.5
		c-0.8-0.4-1.5-0.6-2-0.6c-0.5-0.1-1.1,0.1-1.6,0.6c0.6,0.1,1.2,0.6,1.9,1.5c0.9-0.2,1.9-0.4,3.1-0.4c2.2,0,4,0.3,5.5,1
		c1.5,0.7,2.7,2,3.6,4l-2.1,3.2c0.5,1.3,1.9,2,4.3,2c1.9,0,3.4-0.3,4.5-0.8c1.1-0.5,1.7-1.5,1.7-2.7c0-0.5-0.5-1-1.4-1.4
		c-0.9-0.4-2.8-0.3-5.7,0.4l0-7.2c0-0.7,1-1.6,3-2.8c2-1.1,4-1.7,6-1.7c2.5,0,4.8,0.5,7,1.6c2.2,1,3.3,2,3.3,3l0,13.3
		c0,0.5-0.3,1.1-0.8,1.8c-0.5,0.6-1.2,1-1.9,1c-1.5,0-2.7-0.7-3.8-2.1c-1.1-1.4-1.6-2.6-1.6-3.6c0-0.7,1.1-1.3,3.4-1.9
		c2.3-0.6,3.4-1.7,3.4-3.2c0-1-1.3-2.2-3.8-3.5c-2.6-1.3-4.8-2-6.7-2c-1.3,0-2.4,0.2-3.4,0.6c-1,0.4-1.9,1.1-2.6,2
		c2.7-0.7,4.7-0.6,5.9,0.5C-29.9,287.6-29.2,289.2-29.2,291.5 M-20.5,293.6l0-1.6c-0.5,0.5-0.9,0.8-1.1,1c-0.2,0.2-0.2,0.4,0,0.7
		c0.2,0.3,0.4,0.5,0.7,0.5C-20.6,294.2-20.5,294-20.5,293.6"/>
	<path class="st0" d="M-11.1,286.1l0.2,0c0.7,0,1.4,0.1,2,0.4c0.6,0.3,1.1,0.6,1.5,1.1c2.2-1.9,3.9-2.9,5.3-2.9
		c1.7,0,4.2,0.6,7.6,1.6l0,11.5c-1.1,1.3-2,1.9-2.7,1.9c-1.5,0-2.7-0.7-3.8-2.1c-1.1-1.4-1.6-2.7-1.6-4.1c1.9-0.2,4-1,6.4-2.5
		c-2.8-1.1-4.9-1.6-6.3-1.6c-1.5,0-2.9,0.3-4.2,1l0,6.5c0,1.8-1.4,2.7-4.1,2.7c-2.7,0-4.1-1.4-4.1-4.1l0-2.1
		c0.9,0.5,1.8,0.7,2.9,0.7c1,0,2-0.3,2.8-0.8c0.7-0.4,1.1-1.1,1.2-2c-0.2,0.1-0.4,0.2-0.7,0.3c-0.7,0.3-1.3,0.4-2.1,0.4
		c-2.7,0-4.1-1-4.1-3.1c0-1.8,1.1-2.8,3.2-3c-1.2-0.7-2.3-0.9-3.2-0.8l0-2.8c2.9-2.2,4.7-3.3,5.5-3.3c0.8,0,1.8,0.4,3.1,1.2
		c1.3,0.8,2.1,1.2,2.5,1.2s1.1-0.4,2.1-1.2c1-0.8,1.8-1.2,2.4-1.2c0.6,0,1.5,0.3,2.8,1c1.3,0.7,2.4,1,3.5,1c-1,2.3-2.1,3.4-3.2,3.4
		c-1,0-2.1-0.3-3.4-0.8c-1.3-0.5-2.1-0.8-2.4-0.8c-0.4,0-1,0.4-1.9,1.1c-0.9,0.8-1.6,1.1-2.2,1.1c-0.6,0-1.5-0.4-2.7-1.2
		c-1.2-0.8-2-1.2-2.4-1.2c-0.4,0-0.9,0.2-1.5,0.5c1,0.1,1.9,0.5,2.7,1.3L-11.1,286.1z M3,293.7c0.2,0.3,0.4,0.5,0.7,0.5
		c0.3,0,0.4-0.2,0.4-0.6l0-1.6c-0.5,0.5-0.9,0.8-1.1,1C2.8,293.2,2.8,293.4,3,293.7"/>
	<path class="st0" d="M-6.5,270.9c-0.4,0-0.7,0.2-0.9,0.7l0-0.1c0-1.6,0.3-2.7,0.8-3.2c0.6-0.6,1.2-0.9,2.1-0.9
		c0.8,0,1.4,0.3,1.8,0.8c0.4,0.5,0.6,1.2,0.6,2c0,0.8-0.1,1.6-0.4,2.5c-0.2,0.9-0.6,1.7-1.2,2.5c-0.5,0.8-1.2,1.2-2,1.2
		c0.5-1.6,0.6-3,0.4-4C-5.6,271.4-6,270.9-6.5,270.9"/>
	<path class="st4" d="M-76.4,305.5c-0.3-0.1-0.6,0.5-0.9,1.7c-0.3,1.2-0.5,1.9-0.5,2.1c0,0.2-0.3,0.4-0.3,0.1c0-0.3,0.2-2.3-0.9-3.3
		c-1-1-3.3-0.5-4.2,0.3c-0.8,0.8,0.3,1.5,1,1.7c0.7,0.2,3.5,0.1,3.2,1.1c0,0-1.1,0.1-1.2,1.7c-0.1,0.9-0.7,1.4-0.9,1.6
		c-0.2,0.2-0.9,1.9-1,3.2c-0.1,1.3,0.1,1.5,0.3,1.5c0,0,0.5,0.2,0.9-0.5c0.4-0.7,1.7-3,1.7-4.3c0-1.3,0-1.8,0-1.8s0.4-0.2,0.5,0
		c0.1,0.2,0.7,0.3,0.8,0.2c0.2-0.1,0.4-0.5,0.1-1c0,0,0.1-0.2,0.2-0.3c0.2-0.1,0.5-1,0.8-2.1C-76.4,306.3-76.2,305.6-76.4,305.5
		 M-81.5,307.4c-1-0.3-0.9-0.7-0.7-0.9c0.2-0.2,1.6-0.6,2.3-0.2c0.7,0.5,0.9,0.8,0.9,1.5C-79,307.9-80.5,307.7-81.5,307.4"/>
	<path class="st4" d="M-76.1,308.7c0,0-0.7,0.9,0.3,1.6c0.8,0.4,2.7,0.1,2.7,0.1s1.9-0.5,2.9,0c0.4,0.3,1.1,1.1,1.4,1
		c0.3-0.1,0.3-0.6-0.2-1.2c-0.6-0.6-1.3-1-2.4-0.9c-1.2,0.1-3.2,0.3-4,0C-75.7,309.1-76,308.7-76.1,308.7"/>
	<path class="st4" d="M-76.7,317.1c0,0-0.5,0.2-0.7-0.1c-0.1-0.3,0.2-1,0.5-1.6c0.3-0.6,0.8-1.7,1-2.2c0.2-0.5,1-1.3,1.8-1.6
		c0.7-0.3,1.7-0.5,2.2,0.1c0.5,0.6,1.1,1.6,1.1,2.6c-0.1,1-0.5,2.6-1,2.8c-0.5,0.3-0.9-0.2-1-0.5c-0.1-0.3,0.2-0.6,0.3-0.9
		c0.2-0.4,0.8-1,0.6-1.9c-0.2-0.9-0.4-1.2-1.6-1.1c-1.2,0.1-1.6,1.1-2,1.9C-75.8,315.2-76.5,317-76.7,317.1"/>
	<path class="st4" d="M-60.7,309.6c0.1,0.1-0.7-0.7-1.5-0.3c-0.6,0.7-2.5,0.6-3.4,0.3c-0.9-0.2-1.8-1.6-2.3-2
		c-0.6-0.3-1.4,0.1-1.4,0.6c0,0.5,0.6,1.2,1.1,1.5c0.5,0.4,0.9,0,0.9,0c0.1-0.1,0.4-0.1,0.4,0.1c0,0.2,0.4,0.4,0.6,0.5
		c0.2,0.1-0.1,0.2-0.1,0.2s-0.6,0.6-1.1,1.3c-0.5,0.7-0.9,2.3-0.8,3c0.1,0.7,0.7,1.9,1.7,2.1c1,0.2,2.6-0.8,2.9-1.2
		c0.3-0.4,0.9-1.9,0.1-2.4c-0.8-0.6-1.5,0.1-1.7,0.5c-0.2,0.5-0.1,1.1,0.1,1.3c0.2,0.1,0.2,0.5,0.2,0.6c0,0.1-0.7,0.3-0.8,0.3
		c-0.1,0.1-1.4,0.3-1.6-1c-0.2-1.4,0.4-2.2,0.9-3c0.5-0.8,1-1.2,1-1.2s1.1,0,1.8-0.1c0.7,0,1.4-0.3,1.6-0.5c0.2-0.2,0.7-0.2,1.1-0.1
		c0.3,0.2,0.8,0.6,1,0.6c0.2,0,0.2,0.1,0.2,0.1s-0.9,1.6-1,2.6c-0.1,1-0.2,2.8,0.2,3.2c0.7,0.6,1.8,0.2,2.3-0.6
		c0.5-0.8,0.7-1.7,0.5-2.5c-0.2-0.8-1.2-0.5-1.4-0.2c-0.2,0.3-0.6,0.5-0.6,0.5s0.1-1.3,0.5-2.3c0.4-1,1.5-1.3,2.3-1.3
		c0.8,0,0.8,0.5,1.2,0.8c0.4,0.4,0.5-0.5,0.5-0.6c0-0.1,0.3-0.2-0.9-1c-1.3-0.8-3,0.5-3.1,0.6c-0.1,0.2-0.2,0.2-0.4,0.2
		C-60.1,310.1-60.6,309.7-60.7,309.6 M-64.4,314.1c0.2,0,0.3,0.2,0.3,0.4c0,0.2-0.2,0.3-0.3,0.3c-0.2,0-0.3-0.1-0.3-0.3
		C-64.7,314.3-64.6,314.1-64.4,314.1 M-59.9,315.3c0.1-0.4,0.3-0.7,0.6-0.6c0.2,0,0.3,0.4,0.2,0.8c-0.1,0.4-0.3,0.7-0.5,0.6
		C-59.9,316.1-60,315.7-59.9,315.3"/>
	<path class="st4" d="M-52.4,311.3c0,0-0.4,0.2-0.7-0.1c-0.3-0.3-0.4-0.7,0-1c0.3-0.3,1.4-1.7,3.5-0.7c1.2,0.8,1.1,1.6,1.1,1.6
		s-0.2,0.3-0.6,0c-0.4-0.3-0.8-1-1.9-0.9C-52.1,310.3-52.3,310.8-52.4,311.3"/>
	<path class="st4" d="M-49.8,317.1c0,0,1.1-0.4,1.5-1.1c0.1-0.3,0.9-1.6,1.1-2.7c0.1-1.1,0.6-1.7,1-1.5c0.7,0.2,1.3,1.7,1.7,1.5
		c0.4-0.2,0-0.9-0.1-1.4c-0.2-0.5-1.1-1.7-2-1.5c-0.8,0.2-1.2,0.5-1.5,2.1c0,0.1-0.2,0.1-0.3,0c-0.1,0-0.3-0.1-0.7-0.2
		c-0.5,0-1,0-1,0s-0.2-0.1-0.2-0.3c0-0.2-0.4-0.9-0.8-0.8c-0.4,0.1-1.1,0.9-1,2.3C-52.2,314.7-51.6,317.4-49.8,317.1 M-51.1,314.7
		c-0.2-0.5,0-1.2,0-1.2s0.3,0.1,0.4,0.2c0.2,0.2,0.5,0.1,0.6,0c0.6-0.7,1.7-0.5,1.7-0.5c-0.1,1.5-0.7,2.1-1.2,2.3
		C-50.6,316-51,315.2-51.1,314.7"/>
	<path class="st4" d="M-38.4,310.2c-0.4-0.2-0.8-0.2-1.2-0.5c-0.3-0.3-1.5-0.8-2.4-0.3c-0.9,0.4-1.4,2-0.6,3.1
		c0.7,1.1,1.4,1.7,2,2.2c0.6,0.5,0.8,0.9,0.6,1.4c-0.2,0.5-0.8,0.1-1.1-0.3c-0.3-0.4-1.1-1.3-1.8-2.1s-1.7-1.4-1.3-0.2
		c0,0,0.4,0.2,0.2,0.7c-0.3,0.6-0.9,2.1-0.9,2.3c-0.1,0.3,0,0.7,0.2,0.6c0.2-0.1,0.2,0,0.5-0.4c0.3-0.4,0.8-1,0.9-1.3
		c0.1-0.3,0.4-0.4,0.7-0.1c0.3,0.3,1.3,1.4,1.8,1.6c0.5,0.2,1.5,0.3,2-0.7c0.2-0.5,0.2-1.1-0.3-1.6c-0.5-0.5-1.9-1-2.4-2.3
		c-0.5-1.2-0.7-2.3,1.3-2c0.1,0.1,0.2,0.2,0,0.3c-0.2,0.1-0.7,0.6-0.4,1.3c0.3,0.7,0.7,1.4,1.5,1.3c0.8-0.2,0.7-1.8,0.8-2.3
		c0.2-0.3,0.4-0.3,0.4-0.3S-38,310.3-38.4,310.2 M-39.6,312.4c-0.2,0-0.3-0.2-0.3-0.5c0-0.3,0.1-0.5,0.3-0.5c0.2,0,0.3,0.2,0.3,0.5
		C-39.3,312.2-39.4,312.4-39.6,312.4"/>
	<path class="st4" d="M-35.8,315.4c0,0-0.7,1.1-0.9,1.4c-0.2,0.3-0.3,0.6-0.5,0.2c-0.2-0.5-0.3-2.2,0.2-2.8c0.5-0.6,1-0.8,1.1-0.8
		h0.1c0,0,0.1-0.1,0.2-0.4c0.1-0.3,0.3-2.4,0.3-2.5c0-0.1,0.2-0.3-0.1-0.6c-0.3-0.3-0.7-0.7-0.9-0.8c-0.1-0.1-0.3-0.5,0-0.9
		c0.3-0.4,0.6-0.2,0.8,0.1c0.2,0.3,0.6,1.2,1.5,1.3c0.9,0.1,2.3,0.2,2.6-0.7c0.2-0.9-0.2-1.4-0.7-1.8c-0.6-0.4-1.3-0.8-1.6-1
		c-0.4-0.2-0.6-0.5-0.1-0.5c0.6,0,2.4,0.8,2.9,1.8c0.6,1,0.5,2.2,0,2.8c-0.5,0.7-3.2,0.6-3.2,0.4c0,0,0,0.5-0.2,1.1
		c-0.1,0.6-0.3,1.3-0.4,1.8c-0.1,0.5-0.1,1.1,0.3,1.6c0.4,0.5,1.2,0.7,1.3,0.1c0.2-0.6,0.2-0.8,0.5-1.8c0.2-1.1,1.2-3.4,2.9-3.2
		c1.7,0.2,1.9,2.3,1.9,2.8c0,0.5-0.2,3-1.4,4.3c-0.2,0.1-0.4-0.2-0.3-0.6c0.1-0.4,1-1.9,0.7-3.4c-0.2-1.5-0.6-1.9-1.1-1.9
		c-0.5,0-1,0.3-1.5,1.7c-0.5,1.4-0.7,2.5-0.8,3.1c-0.1,0.5-0.8,1.6-1.7,0.9C-34.8,316.2-34.7,315.1-35.8,315.4"/>
	<path class="st4" d="M-25.7,311.3c0,0-0.4,0.2-0.7-0.1c-0.3-0.3-0.4-0.7,0-1c0.3-0.3,1.4-1.7,3.5-0.7c1.2,0.8,1.1,1.6,1.1,1.6
		s-0.2,0.3-0.6,0c-0.4-0.3-0.8-1-1.9-0.9C-25.5,310.3-25.6,310.8-25.7,311.3"/>
	<path class="st4" d="M-5,306.1c-0.1-0.2-0.8-0.2-1.7,0.5c-0.8,0.7-1.9,2-1.8,4.4c0.1,2.4,0.5,4-0.6,4.6c-0.4,0-0.6,0-0.7-1.1
		c-0.1-1.1-0.3-3.9-1.4-3.9c-1,0-1.6,1.2-2.2,2.9c-0.6,1.7-1.5,2.6-2.6,2c-0.2-0.3-0.3-0.9-0.2-1.2c0.4-0.2,1.7-0.9,2.2-2.9
		c0.2-0.9,0.3-2.1-0.8-2.2c-1.1,0-2.7,1.2-3,2.9c-0.1,0.7,0,1.8,0,1.8s-1,0.4-1.8,2.7c-0.9,2.4-1.7,3.9-3.3,2.7
		c-0.1-0.2,0.2-0.7,0.2-0.7c0.1-0.1,0.3-0.5,0.3-1.1c0-0.6-0.1-1.1-0.1-1.1s0.3-0.4,0.6-0.7c0.2-0.2,0.9-1.6,1.1-2.7
		c0.1-1.1,0.6-1.7,1-1.5c0.7,0.2,1.3,1.7,1.7,1.5c0.4-0.2,0-0.9-0.1-1.4c-0.2-0.5-1.1-1.7-2-1.5c-0.8,0.2-1.2,0.5-1.5,2.1
		c0,0.1-0.2,0.1-0.3,0c-0.1,0-0.3-0.1-0.7-0.2c-0.5,0-1,0-1,0s-0.2-0.1-0.2-0.3c0-0.2-0.4-0.9-0.8-0.8c-0.4,0.1-1.1,0.9-1,2.3
		c0.1,1.4,0.7,4.1,2.4,3.8c0,0.4,0.1,1.1-0.2,1.5c-0.3,0.4-0.5,0.4-0.8-0.1c-0.3-0.5-1.7-1.6-2.2,0c-0.6,1.6-0.1,3.1,1.5,2.4
		c0.4-0.2,0.8-0.9,1.5-0.5c0.6,0.3,2.4,0.8,3.1-0.2c0.7-1.1,1.4-2.3,1.7-3.3c0.3-1,0.6-1.8,1.2-1.9c0.2,0.7,0.8,3,3.5,1.6
		c0.3-0.2,0.8-0.5,1.4-2.4c0.5-1.9,0.8-2.7,1.4-2.6c0.3,0.1,0.4,0.4,0.4,1.2c0,0.8,0.1,2.2,0.5,3c0.4,0.9,1,1.3,1.6,0.9
		c0.6-0.5,1.7-1.8,1.6-3.1c-0.1-1.3-0.4-4.1,0.1-5.2c0.3-0.5,1-1,1.5-1.4C-5,306.7-4.9,306.4-5,306.1 M-25.2,320.2
		c-0.5,0-0.6-0.2-0.6-0.6c0-0.3,0.1-0.8,0.3-0.9c0.3-0.1,0.4,0.1,0.6,0.3c0.2,0.2,0.5,0.3,0.5,0.7
		C-24.3,319.7-24.8,320.1-25.2,320.2 M-24.5,314.7c-0.2-0.5,0-1.2,0-1.2s0.3,0.1,0.4,0.2c0.2,0.2,0.5,0.1,0.6,0
		c0.6-0.7,1.7-0.5,1.7-0.5c-0.1,1.5-0.7,2.1-1.2,2.3C-24,316-24.3,315.2-24.5,314.7 M-16.6,313.6c0,0-0.5-0.6-0.2-1.5
		c0.3-0.9,0.7-1.4,1.2-1.5c0.4-0.1,1-0.1,0.9,0.5c0,0.6-0.2,1.9-1.6,2.4C-16.5,313.6-16.6,313.6-16.6,313.6"/>
	<path class="st4" d="M-1.2,315.9c0,0-0.2,0.2-0.7,0.3c-0.5,0.1-1.1,0-1.4,0c-0.3,0-0.3,0.1-0.4,0.3c-0.2,0.3-0.7,1.1-1,0.5
		c-0.3-0.6-0.2-1.5,0.1-2.3c0.3-0.8,1.4-2.5,1.8-2.9c0.4-0.4,1.1-0.8,1.9-0.2c0.7,0.7,1.9,2.3,2,2.8c0.1,0.6,0.1,1.4-0.5,2.1
		c-0.6,0.7-1.4,0.9-1.6,0.5c-0.2-0.4,0.2-0.9,0.5-1.2c0.2-0.3,0.5-0.5,0.6-0.6c0.1-0.1,0.2-0.2-0.1-0.7c-0.2-0.5-0.5-1.2-1-1.4
		c-0.5-0.3-0.8-0.6-1.5,0.3c-0.7,0.9-1,1.8-0.5,1.8c0.6,0,1.4,0,1.8,0.2C-1.2,315.6-1.1,315.7-1.2,315.9"/>
	<path class="st4" d="M6.9,317.9l-3.8,0c0,0,0-0.3,0.1-1.2c0.1-1.1,0.9-4.3,0.9-4.4c0-0.2,0.1-0.7,0.5-1.2c0.3-0.4,0.4-0.9,0.3-1.4
		c-0.1-0.5-0.8-0.5-1-0.3c-0.3,0.5-0.7,0.6-1.3,0.7c-1.3,0.3-3.9,0-5-0.1c-1.1-0.2-0.9-0.8-1.2-1.1c-0.3-0.3-1.1-0.1-1.1,0.1
		c0,1,0.2,1.2,0.8,1.7c0.6,0.5,3.7,0.7,4.6,0.8c0.9,0,2.4-0.1,2.4-0.1s-0.1,0.9-0.3,2c-0.3,1.1-0.7,4.6-0.7,4.6s-3.7,0-4.4-0.1
		c-0.7-0.1-1.5-0.1-2-0.2c-0.5-0.1-0.7,0.3-0.7,0.7c0.1,0.4,0.7,1.3,1.7,2.3c1.4,1.3,2.9,1.4,4.3,1.4c1.4,0,1.8-1,1.9-1.6
		c0.1-0.6-0.1-1.8-0.1-1.8s1.8,0,2.6-0.2C6.4,318.2,6.9,317.9,6.9,317.9 M2.1,320.4c-0.1,0.4-0.5,0.6-1.1,0.7
		c-0.6,0.1-3.2,0.3-4.7-2.3c-0.1-0.2,0.1-0.4,0.6-0.4c0.5,0,5.2,0.1,5.3,0.1C2.1,318.6,2.2,320,2.1,320.4"/>
	<path class="st4" d="M-48.4,310.2c0.1,0-0.1,0,0-0.3c0-0.2,0.1-0.4,0.2-0.7c0.1-0.5,0.3-2.4-0.3-3c-0.5-0.7-1.7-1.3-3-1
		c-1,0.3-0.6,1.7-0.2,2c0.4,0.3,1.7,1.2,2,1.6C-49.4,309.2-48.5,310.1-48.4,310.2 M-51.2,306c0.3-0.3,1.3-0.1,1.7,0.1
		c0.4,0.2,0.7,0.6,0.7,1c0,0.4,0.2,1.5-0.1,1.4c0,0-0.4-0.2-1.4-1C-51.2,306.7-51.6,306.3-51.2,306"/>
	<path class="st4" d="M-47,305.5c-0.5,0-0.3,0.6-0.3,1c0,0.4-0.3,1.4-0.6,2.1c-0.3,0.7-0.5,1.1-0.5,1.3c0,0.1-0.1,0.1-0.1,0.1
		c0.1,0.3,0.4,0.4,0.6,0.2c0-0.1,0.1-0.2,0.1-0.2c0.1-0.3,1-1.5,1.1-2.5C-46.6,306.6-46.5,305.5-47,305.5"/>
	<path class="st0" d="M-51.8,321.9c-0.6,0-1.1-0.1-1.8-0.3c-1.1-0.3-1.9-1-2.5-2.1c-1.8-3.4,0.2-9.5,0.4-10.1
		c0.1-0.3,0.3-1.4,1.3-1.9c0.6-0.3,1.2-0.2,1.9,0.1c0.2,0.1,0.8,0.7,0.7,0.9c-0.1,0.2-0.6,0.5-0.8,0.3c-0.4-0.2-1.1-0.6-1.4-0.5
		c-0.5,0.2-0.7,1-0.7,1.2l0,0.1c0,0.1-2.1,6.2-0.4,9.3c0.4,0.8,1,1.3,1.9,1.6c1.3,0.4,2.4,0.3,3.4-0.3c2.1-1.2,2.5-4.1,2.5-4.1
		c0.1-0.3,0.6-1,0.9-0.9c0.3,0.1,0.4,0.9,0.4,1.1c0,0.1-0.8,3.3-3.2,4.8C-50.1,321.7-50.9,321.9-51.8,321.9"/>
</g>
</svg>
