<?xml version="1.0" encoding="utf-8"?>
<!-- Generator: Adobe Illustrator 19.0.0, SVG Export Plug-In . SVG Version: 6.00 Build 0)  -->
<svg version="1.1" id="Layer_1" xmlns="http://www.w3.org/2000/svg" xmlns:xlink="http://www.w3.org/1999/xlink" x="0px" y="0px"
	 viewBox="0 0 94 33.4" style="enable-background:new 0 0 94 33.4;" xml:space="preserve">
<style type="text/css">
	.st0{fill:#eea236;}
</style>
<g>
	<g>
		<path class="st0" d="M89.1,33.4H4.9c-2.7,0-4.9-2.2-4.9-4.9V5C0,2.2,2.2,0,4.9,0h84.1C91.8,0,94,2.2,94,5v23.5
			C94,31.2,91.8,33.4,89.1,33.4z M4.9,1.2C2.9,1.2,1.2,2.9,1.2,5v23.5c0,2.1,1.7,3.8,3.8,3.8h84.1c2.1,0,3.8-1.7,3.8-3.8V5
			c0-2.1-1.7-3.8-3.8-3.8H4.9z"/>
	</g>
	<g>
		<path class="st0" d="M30.5,10h-0.7c0-0.1-0.1-0.4-0.2-0.8h-1c-0.1,0.5-0.2,0.7-0.2,0.8h-0.7c0-0.1,0.2-0.5,0.5-1.4
			c0.4-0.9,0.5-1.4,0.5-1.5h0.9c0,0.1,0.2,0.6,0.5,1.5C30.4,9.4,30.5,9.9,30.5,10z M29.5,8.7c-0.3-0.8-0.4-1.2-0.4-1.3h0
			c0,0.1-0.1,0.5-0.4,1.3H29.5z"/>
		<path class="st0" d="M33.4,10h-0.6c0-0.1-0.2-0.4-0.6-1c-0.4-0.6-0.7-1-0.7-1.3h0c0,0.3,0.1,0.6,0.1,0.9c0,0.4,0,0.8,0,1.4H31
			c0-0.5,0-1,0-1.5c0-0.5,0-1,0-1.4h0.7c0,0.1,0.2,0.4,0.6,1c0.4,0.6,0.6,1,0.7,1.2h0c0-0.3-0.1-0.6-0.1-0.9c0-0.4,0-0.8,0-1.3h0.6
			c0,0.4,0,0.8,0,1.4C33.4,9,33.4,9.6,33.4,10z"/>
		<path class="st0" d="M36.7,8.4c0,0.4-0.1,0.8-0.4,1.1C36,9.9,35.6,10,35.1,10c-0.2,0-0.5,0-0.9,0c0-0.5,0-1,0-1.5c0-0.5,0-1,0-1.4
			h0.4c0.1,0,0.2,0,0.3,0c0.1,0,0.2,0,0.3,0c0.5,0,0.9,0.1,1.2,0.4C36.6,7.7,36.7,8.1,36.7,8.4z M36.1,8.5c0-0.3-0.1-0.5-0.3-0.7
			c-0.2-0.2-0.4-0.3-0.8-0.3c-0.1,0-0.2,0-0.3,0c0,0.3,0,0.6,0,0.9c0,0.4,0,0.7,0,1.1c0.1,0,0.2,0,0.3,0c0.3,0,0.6-0.1,0.7-0.3
			C36,9.1,36.1,8.8,36.1,8.5z"/>
		<path class="st0" d="M39.7,10h-0.7c-0.2-0.5-0.3-0.9-0.4-1c-0.1-0.1-0.2-0.2-0.5-0.2c-0.1,0-0.2,0-0.3,0c0,0.4,0,0.8,0,1.2h-0.6
			c0-0.5,0-1,0-1.5c0-0.5,0-1,0-1.4h0.4c0,0,0.1,0,0.3,0c0.1,0,0.3,0,0.4,0c0.7,0,1,0.2,1,0.7c0,0.4-0.2,0.6-0.6,0.8v0
			c0.2,0,0.3,0.2,0.4,0.4C39.4,9.1,39.5,9.5,39.7,10z M38.9,7.9c0-0.3-0.2-0.4-0.6-0.4c-0.1,0-0.3,0-0.4,0c0,0.2,0,0.5,0,0.9
			c0.1,0,0.2,0,0.2,0C38.6,8.4,38.9,8.3,38.9,7.9z"/>
		<path class="st0" d="M43,8.5c0,0.5-0.1,0.8-0.4,1.1c-0.3,0.3-0.6,0.5-1,0.5c-0.4,0-0.7-0.1-1-0.4c-0.3-0.3-0.4-0.6-0.4-1.1
			c0-0.5,0.1-0.8,0.4-1.1c0.3-0.3,0.6-0.5,1-0.5c0.4,0,0.7,0.1,1,0.4C42.8,7.7,43,8.1,43,8.5z M42.3,8.6c0-0.3-0.1-0.6-0.2-0.8
			c-0.2-0.2-0.4-0.3-0.6-0.3c-0.2,0-0.4,0.1-0.6,0.3c-0.2,0.2-0.2,0.4-0.2,0.7c0,0.3,0.1,0.6,0.2,0.8c0.2,0.2,0.4,0.3,0.6,0.3
			c0.2,0,0.4-0.1,0.6-0.3C42.3,9.1,42.3,8.9,42.3,8.6z"/>
		<path class="st0" d="M44.2,10h-0.6c0-0.5,0-1,0-1.5c0-0.5,0-1,0-1.4h0.6c0,0.4,0,0.8,0,1.4C44.2,9,44.2,9.6,44.2,10z"/>
		<path class="st0" d="M47.5,8.4c0,0.4-0.1,0.8-0.4,1.1c-0.3,0.3-0.7,0.5-1.2,0.5c-0.2,0-0.5,0-0.9,0c0-0.5,0-1,0-1.5
			c0-0.5,0-1,0-1.4h0.4c0.1,0,0.2,0,0.3,0s0.2,0,0.3,0c0.5,0,0.9,0.1,1.2,0.4C47.4,7.7,47.5,8.1,47.5,8.4z M46.9,8.5
			c0-0.3-0.1-0.5-0.3-0.7c-0.2-0.2-0.4-0.3-0.8-0.3c-0.1,0-0.2,0-0.3,0c0,0.3,0,0.6,0,0.9c0,0.4,0,0.7,0,1.1c0.1,0,0.2,0,0.3,0
			c0.3,0,0.6-0.1,0.7-0.3C46.8,9.1,46.9,8.8,46.9,8.5z"/>
		<path class="st0" d="M51.8,10h-0.7c0-0.1-0.1-0.4-0.2-0.8h-1c-0.1,0.5-0.2,0.7-0.2,0.8H49c0-0.1,0.2-0.5,0.5-1.4
			C49.9,7.7,50,7.2,50,7.1h0.9c0,0.1,0.2,0.6,0.5,1.5C51.7,9.4,51.8,9.9,51.8,10z M50.8,8.7c-0.3-0.8-0.4-1.2-0.4-1.3h0
			c0,0.1-0.1,0.5-0.4,1.3H50.8z"/>
		<path class="st0" d="M54.5,7.8c0,0.4-0.1,0.6-0.4,0.8c-0.3,0.2-0.6,0.3-1,0.3c-0.1,0-0.1,0-0.2,0c0,0.3,0,0.7,0,1.1h-0.6
			c0-0.4,0-0.9,0-1.5c0-0.5,0-1,0-1.4h0.4c0.1,0,0.2,0,0.3,0c0.2,0,0.3,0,0.4,0c0.3,0,0.5,0.1,0.7,0.2C54.4,7.4,54.5,7.6,54.5,7.8z
			 M53.9,8c0-0.3-0.2-0.5-0.6-0.5c-0.1,0-0.2,0-0.3,0c0,0.3,0,0.6,0,1c0,0,0.1,0,0.1,0C53.6,8.5,53.9,8.3,53.9,8z"/>
		<path class="st0" d="M57.2,7.8c0,0.4-0.1,0.6-0.4,0.8c-0.3,0.2-0.6,0.3-1,0.3c-0.1,0-0.1,0-0.2,0c0,0.3,0,0.7,0,1.1H55
			c0-0.4,0-0.9,0-1.5c0-0.5,0-1,0-1.4h0.4c0.1,0,0.2,0,0.3,0s0.3,0,0.4,0c0.3,0,0.5,0.1,0.7,0.2C57.1,7.4,57.2,7.6,57.2,7.8z
			 M56.6,8c0-0.3-0.2-0.5-0.6-0.5c-0.1,0-0.2,0-0.3,0c0,0.3,0,0.6,0,1c0,0,0.1,0,0.1,0C56.3,8.5,56.6,8.3,56.6,8z"/>
		<path class="st0" d="M61.6,8.5c0,0.5-0.1,0.8-0.4,1.1c-0.3,0.3-0.6,0.5-1,0.5c-0.4,0-0.7-0.1-1-0.4c-0.3-0.3-0.4-0.6-0.4-1.1
			c0-0.5,0.1-0.8,0.4-1.1c0.3-0.3,0.6-0.5,1-0.5c0.4,0,0.7,0.1,1,0.4C61.5,7.7,61.6,8.1,61.6,8.5z M61,8.6c0-0.3-0.1-0.6-0.2-0.8
			c-0.2-0.2-0.4-0.3-0.6-0.3c-0.2,0-0.4,0.1-0.6,0.3c-0.2,0.2-0.2,0.4-0.2,0.7c0,0.3,0.1,0.6,0.2,0.8c0.2,0.2,0.4,0.3,0.6,0.3
			c0.2,0,0.4-0.1,0.6-0.3C60.9,9.1,61,8.9,61,8.6z"/>
		<path class="st0" d="M64.6,10h-0.6c0-0.1-0.2-0.4-0.6-1c-0.4-0.6-0.7-1-0.7-1.3h0c0,0.3,0.1,0.6,0.1,0.9c0,0.4,0,0.8,0,1.4h-0.6
			c0-0.5,0-1,0-1.5c0-0.5,0-1,0-1.4h0.7c0,0.1,0.2,0.4,0.6,1c0.4,0.6,0.6,1,0.7,1.2h0c0-0.3-0.1-0.6-0.1-0.9c0-0.4,0-0.8,0-1.3h0.6
			c0,0.4,0,0.8,0,1.4C64.6,9,64.6,9.6,64.6,10z"/>
	</g>
	<g>
		<path class="st0" d="M36.5,18.6c0,1.2-0.4,2.2-1.1,3c-0.8,0.9-1.9,1.3-3.3,1.3c-1.3,0-2.4-0.4-3.3-1.3c-0.9-0.9-1.3-2-1.3-3.3
			c0-1.3,0.4-2.4,1.3-3.3c0.9-0.9,2-1.3,3.3-1.3c0.6,0,1.2,0.1,1.8,0.4c0.6,0.2,1,0.6,1.4,1l-0.8,0.8c-0.6-0.7-1.4-1.1-2.4-1.1
			c-0.9,0-1.7,0.3-2.4,1c-0.7,0.7-1,1.5-1,2.6c0,1.1,0.3,1.9,1,2.6c0.7,0.7,1.5,1,2.4,1c1,0,1.8-0.3,2.5-1c0.4-0.4,0.7-1,0.7-1.8
			h-3.2v-1.1h4.3C36.5,18.1,36.5,18.3,36.5,18.6z"/>
		<path class="st0" d="M37.9,17.3c0.6-0.6,1.3-0.9,2.3-0.9c0.9,0,1.7,0.3,2.3,0.9c0.6,0.6,0.9,1.4,0.9,2.3s-0.3,1.7-0.9,2.3
			c-0.6,0.6-1.3,0.9-2.3,0.9c-0.9,0-1.7-0.3-2.3-0.9c-0.6-0.6-0.9-1.4-0.9-2.3S37.3,17.9,37.9,17.3z M38.7,21.2
			c0.4,0.4,0.9,0.6,1.4,0.6c0.5,0,1-0.2,1.4-0.6c0.4-0.4,0.6-0.9,0.6-1.6c0-0.7-0.2-1.2-0.6-1.6c-0.4-0.4-0.9-0.6-1.4-0.6
			c-0.5,0-1,0.2-1.4,0.6c-0.4,0.4-0.6,0.9-0.6,1.6C38.1,20.3,38.3,20.8,38.7,21.2z"/>
		<path class="st0" d="M44.5,17.3c0.6-0.6,1.3-0.9,2.3-0.9c0.9,0,1.7,0.3,2.3,0.9c0.6,0.6,0.9,1.4,0.9,2.3s-0.3,1.7-0.9,2.3
			c-0.6,0.6-1.3,0.9-2.3,0.9c-0.9,0-1.7-0.3-2.3-0.9s-0.9-1.4-0.9-2.3S43.9,17.9,44.5,17.3z M45.4,21.2c0.4,0.4,0.9,0.6,1.4,0.6
			c0.5,0,1-0.2,1.4-0.6c0.4-0.4,0.6-0.9,0.6-1.6c0-0.7-0.2-1.2-0.6-1.6c-0.4-0.4-0.9-0.6-1.4-0.6c-0.5,0-1,0.2-1.4,0.6
			c-0.4,0.4-0.6,0.9-0.6,1.6C44.8,20.3,45,20.8,45.4,21.2z"/>
		<path class="st0" d="M53.3,25.5c-0.7,0-1.3-0.2-1.8-0.5c-0.5-0.4-0.8-0.8-1-1.2l1-0.4c0.1,0.3,0.3,0.6,0.6,0.8
			c0.3,0.2,0.7,0.3,1.1,0.3c0.6,0,1.1-0.2,1.5-0.6c0.4-0.4,0.5-0.9,0.5-1.5v-0.6h0c-0.2,0.3-0.5,0.5-0.8,0.7
			c-0.4,0.2-0.8,0.3-1.2,0.3c-0.8,0-1.5-0.3-2-0.9c-0.6-0.6-0.9-1.4-0.9-2.3s0.3-1.7,0.9-2.3c0.6-0.6,1.3-0.9,2-0.9
			c0.5,0,0.9,0.1,1.2,0.3c0.4,0.2,0.6,0.4,0.8,0.7h0v-0.8h1.1v5.8c0,1-0.3,1.8-0.9,2.4C54.9,25.3,54.2,25.5,53.3,25.5z M53.4,21.8
			c0.5,0,1-0.2,1.4-0.6s0.6-0.9,0.6-1.6c0-0.7-0.2-1.2-0.6-1.6c-0.4-0.4-0.8-0.6-1.4-0.6c-0.5,0-1,0.2-1.4,0.6
			c-0.4,0.4-0.6,0.9-0.6,1.6c0,0.7,0.2,1.2,0.6,1.6C52.4,21.6,52.8,21.8,53.4,21.8z"/>
		<path class="st0" d="M58.6,22.6h-1.1v-8.9h1.1V22.6z"/>
		<path class="st0" d="M62.4,22.8c-0.9,0-1.7-0.3-2.2-0.9c-0.6-0.6-0.9-1.4-0.9-2.3c0-0.9,0.3-1.7,0.8-2.3c0.6-0.6,1.3-1,2.1-1
			c0.9,0,1.6,0.3,2.2,0.9c0.5,0.6,0.8,1.4,0.8,2.4l0,0.2h-4.8c0,0.6,0.2,1.1,0.6,1.5c0.4,0.4,0.8,0.5,1.3,0.5c0.8,0,1.4-0.3,1.7-1
			l1,0.4c-0.2,0.5-0.5,0.9-1,1.2C63.6,22.7,63.1,22.8,62.4,22.8z M64.1,18.9c0-0.3-0.2-0.7-0.5-1c-0.3-0.3-0.7-0.5-1.3-0.5
			c-0.4,0-0.8,0.1-1.1,0.4c-0.3,0.3-0.5,0.6-0.6,1.1H64.1z"/>
		<path class="st0" d="M69.8,22.6h-1.1v-8.9h3c0.8,0,1.4,0.3,2,0.8c0.6,0.5,0.8,1.1,0.8,1.9c0,0.8-0.3,1.4-0.8,1.9
			c-0.6,0.5-1.2,0.8-2,0.8h-1.9V22.6z M69.8,17.9h1.9c0.5,0,0.9-0.2,1.2-0.5c0.3-0.3,0.4-0.7,0.4-1.1c0-0.4-0.1-0.7-0.4-1.1
			c-0.3-0.3-0.7-0.5-1.2-0.5h-1.9V17.9z"/>
		<path class="st0" d="M76.3,22.6h-1.1v-8.9h1.1V22.6z"/>
		<path class="st0" d="M79.3,22.8c-0.6,0-1.2-0.2-1.6-0.6c-0.4-0.4-0.7-0.9-0.7-1.5c0-0.7,0.3-1.2,0.8-1.6c0.5-0.4,1.1-0.6,1.9-0.6
			c0.7,0,1.2,0.1,1.7,0.4v-0.2c0-0.4-0.2-0.8-0.5-1.1c-0.3-0.3-0.7-0.4-1.1-0.4c-0.3,0-0.6,0.1-0.9,0.2c-0.3,0.2-0.5,0.4-0.6,0.6
			l-1-0.4c0.1-0.4,0.4-0.7,0.8-1c0.4-0.3,1-0.5,1.6-0.5c0.8,0,1.4,0.2,1.9,0.7c0.5,0.5,0.8,1.1,0.8,1.9v3.7h-1.1v-0.8h0
			C80.8,22.5,80.2,22.8,79.3,22.8z M79.5,21.8c0.5,0,0.9-0.2,1.3-0.5c0.4-0.4,0.6-0.8,0.6-1.2c-0.3-0.3-0.8-0.4-1.5-0.4
			c-0.6,0-1,0.1-1.3,0.4c-0.3,0.2-0.4,0.5-0.4,0.8c0,0.3,0.1,0.5,0.4,0.7C78.8,21.7,79.1,21.8,79.5,21.8z"/>
		<path class="st0" d="M84.9,25.3h-1.2l1.4-3.1l-2.5-5.7h1.2l1.8,4.4h0l1.8-4.4h1.2L84.9,25.3z"/>
	</g>
	<g>
		<path class="st0" d="M6.5,17.1c0-2.8,0-5.7,0-8.5c0-0.3,0.1-0.7,0.3-0.9c0.1-0.1,0.2-0.1,0.3,0c1.9,1.9,3.8,3.9,5.7,5.8
			c1.2,1.3,2.5,2.5,3.7,3.8c0.1,0.1,0.1,0.2,0,0.3c-3,3-6.1,6-9.1,9.1c-0.2,0.2-0.3,0.2-0.5,0c-0.3-0.2-0.4-0.6-0.4-1
			c0-1.7,0-3.4,0-5C6.5,19.4,6.5,18.3,6.5,17.1C6.5,17.1,6.5,17.1,6.5,17.1z"/>
		<path class="st0" d="M7.6,7.3c0.2,0,0.4,0.1,0.6,0.2c3.9,2.2,7.7,4.3,11.6,6.5c0.2,0.1,0.2,0.2,0,0.3c-0.9,0.9-1.7,1.7-2.6,2.6
			c-0.1,0.1-0.1,0.1-0.3,0c-3.1-3.1-6.2-6.3-9.3-9.4C7.7,7.4,7.7,7.4,7.6,7.3z"/>
		<path class="st0" d="M8.5,26.5c2.8-2.8,5.6-5.7,8.4-8.5c0.2-0.2,0.3-0.2,0.4,0c0.7,0.7,1.4,1.5,2.2,2.2c0.1,0.1,0.1,0.2,0,0.3
			c-3.6,2-7.2,4-10.8,5.9C8.6,26.5,8.5,26.5,8.5,26.5z"/>
		<path class="st0" d="M24.5,17.1c0,0.3-0.2,0.5-0.4,0.7c-0.2,0.1-0.4,0.2-0.5,0.3c-1.1,0.6-2.2,1.2-3.3,1.8c-0.1,0.1-0.2,0.1-0.4,0
			c-0.8-0.8-1.6-1.6-2.3-2.4c-0.1-0.1-0.1-0.2,0-0.3c0.9-0.9,1.8-1.8,2.7-2.7c0.1-0.1,0.2-0.1,0.3,0c1.1,0.6,2.2,1.2,3.2,1.8
			C24.3,16.5,24.5,16.8,24.5,17.1z"/>
	</g>
</g>
</svg>
